<?xml version="1.0" encoding="utf-8"?>
<!-- Generator: Adobe Illustrator 22.1.0, SVG Export Plug-In . SVG Version: 6.00 Build 0)  -->
<svg version="1.1" id="Layer_1" xmlns="http://www.w3.org/2000/svg" xmlns:xlink="http://www.w3.org/1999/xlink" x="0px" y="0px"
	 viewBox="0 0 1366 768" style="enable-background:new 0 0 1366 768;" xml:space="preserve">
<style type="text/css">
	.st0{opacity:0.4;fill:url(#SVGID_1_);}
	.st1{opacity:0.4;fill:url(#SVGID_2_);}
	.st2{fill:url(#SVGID_3_);}
	.st3{fill:url(#SVGID_4_);}
	.st4{fill:url(#SVGID_5_);}
	.st5{fill:url(#SVGID_6_);}
	.st6{fill:url(#SVGID_7_);}
	.st7{fill:url(#SVGID_8_);}
	.st8{fill:url(#SVGID_9_);}
	.st9{fill:url(#SVGID_10_);}
	.st10{fill:url(#SVGID_11_);}
	.st11{fill:url(#SVGID_12_);}
	.st12{fill:url(#SVGID_13_);}
	.st13{fill:url(#SVGID_14_);}
	.st14{fill:url(#SVGID_15_);}
	.st15{fill:url(#SVGID_16_);}
	.st16{fill:url(#SVGID_17_);}
	.st17{fill:url(#SVGID_18_);}
	.st18{fill:url(#SVGID_19_);}
	.st19{fill:url(#SVGID_20_);}
	.st20{fill:url(#SVGID_21_);}
	.st21{fill:url(#SVGID_22_);}
	.st22{fill:url(#SVGID_23_);}
	.st23{fill:url(#SVGID_24_);}
	.st24{fill:url(#SVGID_25_);}
	.st25{fill:url(#SVGID_26_);}
	.st26{fill:url(#SVGID_27_);}
	.st27{fill:url(#SVGID_28_);}
	.st28{fill:url(#SVGID_29_);}
	.st29{fill:url(#SVGID_30_);}
	.st30{fill:url(#SVGID_31_);}
	.st31{fill:url(#SVGID_32_);}
	.st32{fill:url(#SVGID_33_);}
	.st33{fill:url(#SVGID_34_);}
	.st34{fill:url(#SVGID_35_);}
	.st35{fill:url(#SVGID_36_);}
	.st36{fill:url(#SVGID_37_);}
	.st37{fill:url(#SVGID_38_);}
	.st38{fill:url(#SVGID_39_);}
	.st39{fill:url(#SVGID_40_);}
	.st40{fill:url(#SVGID_41_);}
	.st41{fill:url(#SVGID_42_);}
	.st42{fill:url(#SVGID_43_);}
	.st43{fill:url(#SVGID_44_);}
	.st44{fill:url(#SVGID_45_);}
	.st45{fill:url(#SVGID_46_);}
	.st46{fill:url(#SVGID_47_);}
	.st47{fill:url(#SVGID_48_);}
	.st48{fill:url(#SVGID_49_);}
	.st49{fill:url(#SVGID_50_);}
	.st50{fill:url(#SVGID_51_);}
	.st51{fill:url(#SVGID_52_);}
	.st52{fill:url(#SVGID_53_);}
	.st53{fill:url(#SVGID_54_);}
	.st54{fill:url(#SVGID_55_);}
	.st55{fill:url(#SVGID_56_);}
	.st56{fill:url(#SVGID_57_);}
	.st57{fill:url(#SVGID_58_);}
	.st58{fill:url(#SVGID_59_);}
	.st59{fill:url(#SVGID_60_);}
	.st60{fill:url(#SVGID_61_);}
	.st61{fill:url(#SVGID_62_);}
	.st62{fill:url(#SVGID_63_);}
	.st63{fill:url(#SVGID_64_);}
	.st64{fill:url(#SVGID_65_);}
	.st65{fill:url(#SVGID_66_);}
	.st66{fill:url(#SVGID_67_);}
	.st67{fill:url(#SVGID_68_);}
	.st68{fill:url(#SVGID_69_);}
	.st69{fill:url(#SVGID_70_);}
	.st70{fill:url(#SVGID_71_);}
	.st71{fill:url(#SVGID_72_);}
	.st72{fill:url(#SVGID_73_);}
	.st73{fill:url(#SVGID_74_);}
	.st74{fill:url(#SVGID_75_);}
	.st75{fill:url(#SVGID_76_);}
	.st76{fill:url(#SVGID_77_);}
	.st77{fill:url(#SVGID_78_);}
	.st78{fill:url(#SVGID_79_);}
	.st79{fill:url(#SVGID_80_);}
	.st80{fill:url(#SVGID_81_);}
	.st81{fill:url(#SVGID_82_);}
	.st82{fill:url(#SVGID_83_);}
	.st83{fill:url(#SVGID_84_);}
	.st84{fill:url(#SVGID_85_);}
	.st85{fill:url(#SVGID_86_);}
	.st86{fill:url(#SVGID_87_);}
	.st87{fill:url(#SVGID_88_);}
	.st88{fill:url(#SVGID_89_);}
	.st89{fill:url(#SVGID_90_);}
	.st90{fill:url(#SVGID_91_);}
	.st91{fill:url(#SVGID_92_);}
	.st92{fill:url(#SVGID_93_);}
	.st93{fill:url(#SVGID_94_);}
	.st94{fill:url(#SVGID_95_);}
	.st95{fill:url(#SVGID_96_);}
	.st96{fill:url(#SVGID_97_);}
	.st97{fill:url(#SVGID_98_);}
	.st98{fill:url(#SVGID_99_);}
	.st99{fill:url(#SVGID_100_);}
	.st100{fill:url(#SVGID_101_);}
	.st101{fill:url(#SVGID_102_);}
	.st102{fill:url(#SVGID_103_);}
	.st103{fill:url(#SVGID_104_);}
	.st104{fill:url(#SVGID_105_);}
	.st105{fill:url(#SVGID_106_);}
	.st106{fill:url(#SVGID_107_);}
	.st107{fill:url(#SVGID_108_);}
	.st108{fill:url(#SVGID_109_);}
	.st109{fill:url(#SVGID_110_);}
	.st110{fill:url(#SVGID_111_);}
	.st111{fill:url(#SVGID_112_);}
	.st112{fill:url(#SVGID_113_);}
</style>
<radialGradient id="SVGID_1_" cx="518.6642" cy="592.7346" r="144.0239" gradientTransform="matrix(8.009 0 0 -2.9958 -3284.6396 2296.0264)" gradientUnits="userSpaceOnUse">
	<stop  offset="0" style="stop-color:#6DCEF5"/>
	<stop  offset="0.4236" style="stop-color:#6CCCF3"/>
	<stop  offset="0.5762" style="stop-color:#67C5ED"/>
	<stop  offset="0.6849" style="stop-color:#5EBAE3"/>
	<stop  offset="0.7729" style="stop-color:#51A9D4"/>
	<stop  offset="0.8482" style="stop-color:#4193C0"/>
	<stop  offset="0.9137" style="stop-color:#2D78A8"/>
	<stop  offset="0.9727" style="stop-color:#15598D"/>
	<stop  offset="0.9737" style="stop-color:#15588C"/>
	<stop  offset="1" style="stop-color:#003972"/>
</radialGradient>
<path class="st0" d="M1346.1,698.9c6,1.1,11.9,2.1,17.9,3.2v-5.7c-4.5-0.4-9-0.8-13.4-1.2c-3.1-0.7-6.2-1.4-9.3-2.2
	c7.6,0.5,15.1,0.9,22.7,1.2v-2.1c-11.4-0.6-22.8-1.2-34.2-2c-3.8-1-7.6-2-11.4-3c15.2,0.6,30.4,1,45.6,1.3v-2.1
	c-18.3-0.4-36.7-0.9-54.9-1.7c-4.2-1.2-8.4-2.4-12.6-3.6c22.5,0.4,45,0.4,67.6,0.2v-2.1c-25.1,0.2-50.3,0.2-75.3-0.3
	c-4.5-1.3-9-2.8-13.5-4.2c17.7-0.1,35.3-0.4,53-0.8c11.9-0.3,23.8-0.7,35.7-1.2v-2.1c-11.9,0.4-23.8,0.8-35.7,1.1
	c-19.9,0.5-39.8,0.8-59.6,0.8c-4.7-1.5-9.5-3.1-14.2-4.7c36.4-1.1,73-2.8,109.6-4.9v-2.1c-38.5,2.2-77,4-115.3,5
	c-4.4-1.5-8.8-3-13.2-4.6c-0.5-0.2-1-0.4-1.5-0.5c43.2-2.2,86.6-5,130-8.4v-2.1c-45.2,3.5-90.4,6.4-135.3,8.6
	c-5.1-1.8-10.2-3.6-15.3-5.5c50-3.5,100.3-7.8,150.6-12.5v-2.1c-51.9,4.9-103.9,9.3-155.6,12.8c-5.3-1.9-10.6-3.8-16-5.8
	c56.9-5.1,114.3-11,171.5-17.3v-2.1c-58.8,6.4-117.9,12.5-176.4,17.7c-5.6-2-11.2-4.1-16.8-6.1c64.1-7,128.7-14.7,193.1-22.6V613
	c-66,8.1-132.2,15.9-197.8,23c-5.8-2.1-11.5-4.2-17.3-6.4c71.3-9.1,143.4-18.7,215.1-28.3v-2.2c-73.2,9.8-146.8,19.6-219.6,28.8
	c-5.9-2.2-11.8-4.4-17.7-6.6c78.7-11.4,158.3-23.1,237.4-34.4v-2.2c-80.6,11.5-161.7,23.4-241.9,35c-6-2.3-12.1-4.5-18.1-6.8
	c86.2-14,173.5-28,260-41v-2.3c-88,13.2-176.8,27.4-264.5,41.6c-6.2-2.3-12.3-4.6-18.5-6.9c93.7-16.8,188.9-33.1,283-47.8v-2.3
	c-95.6,14.9-192.2,31.4-287.4,48.5c-6.3-2.4-12.6-4.7-18.9-7.1c101.4-19.9,204.5-38.6,306.2-55v-2.3
	c-103.2,16.5-207.8,35.5-310.6,55.6c-6.4-2.4-12.8-4.8-19.2-7.2c109.2-23.2,220.3-44.4,329.8-62.4V522
	c-110.9,18.1-223.6,39.6-334.2,63.1c-6.5-2.4-13-4.9-19.5-7.3c117-26.7,236.4-50.5,353.7-70v-2.4c-118.8,19.6-239.6,43.7-358,70.8
	c-6.6-2.5-13.2-4.9-19.8-7.4c124.9-30.5,252.6-57,377.8-77.9v-2.4c-126.7,21-255.8,47.8-382.2,78.7c-6.7-2.5-13.4-4.9-20.1-7.4
	c133-34.5,269.1-63.8,402.2-86v-2.4c-134.6,22.3-272.2,51.9-406.7,86.8C681.9,456.7,379.7,358.7-0.5,350.2v2.5
	c377.1,8.3,677.9,105.6,952.8,206.8c-9.1,2.4-18.3,4.8-27.4,7.2C655.2,475.9,361.1,386.1-0.5,371.4v2.5
	c358.8,14.6,651.4,103.6,920.3,194.2c-9.1,2.4-18.1,4.9-27.2,7.4c-263.5-80.6-549.2-162.2-893.2-182v2.5
	c341.2,19.6,625.4,100.5,888.1,180.8c-9,2.5-17.9,5-26.9,7.5c-257.1-70.7-534.2-144.4-861.2-168v2.5
	c324.3,23.5,599.8,96.5,856,166.9c-8.9,2.5-17.8,5-26.6,7.6C578.5,532.1,310.1,466.2-0.5,439.9v2.6C307.6,468.7,574.4,534,823.8,595
	c-8.8,2.5-17.5,5.1-26.2,7.7c-243.5-52.4-503-110.8-798.1-138.8v2.6c292.6,27.8,550.5,85.7,792.8,137.6c-8.6,2.6-17.2,5.1-25.8,7.7
	C530.3,568.2,279.8,517-0.5,488.4v2.6c277.9,28.5,526.7,79.1,761.7,122.5c-8.4,2.6-16.8,5.2-25.2,7.8
	C507.2,585.8,265.7,541.6-0.5,513.1v2.6C263.3,544,503,587.7,730.6,623c-8.2,2.6-16.4,5.2-24.5,7.8C484.8,602.9,252.3,565.5-0.5,538
	v2.6c250.4,27.2,481.1,64.2,701,91.9c-8,2.5-15.9,5.1-23.8,7.7c-213.6-20.6-437.1-51.6-677.2-77.4v2.6
	c237.6,25.5,459.2,56.1,671.4,76.7c-7.3,2.4-14.6,4.8-21.9,7.3C464.2,637,272.4,616.4,70.3,595c-23.4-2.5-47.1-4.9-70.8-7.4v2.6
	c23.2,2.4,46.3,4.8,69.2,7.2C269,618.6,459.3,639,643,651.3c-7.2,2.4-14.4,4.9-21.6,7.3c-198.6-7.4-404.9-25.8-621.9-46.8v2.6
	C213.9,635.2,418,653.3,615,660.8c-7,2.4-14,4.8-21,7.1c-190.8-1-388.4-14.4-594.5-32.3v2.6C202.8,655.8,398,669,586.8,670.3
	c-6.2,2-12.4,4.1-18.6,6.1c-13.5,0.3-27.1,0.5-40.7,0.7c-170.7,3-346.6-4.7-528.1-18.2v2.6c181.4,13.4,357.2,21,528.1,18
	c11-0.1,21.9-0.4,32.9-0.6c-6.3,2-12.5,4-18.8,6c-55.5,2.8-111.5,4.6-168,5.3c-122.3,2-247-1.5-374.1-8.9v2.6
	c127,7.3,251.7,10.8,374.1,8.7c53.4-0.7,106.3-2.3,158.9-4.9c-5.8,1.8-11.7,3.6-17.5,5.4c-91.2,7.3-183.6,11.5-277.3,12.6
	c-78.6,1.2-158,0.1-238.2-3v2.5c80.2,3.1,159.6,4.2,238.2,2.9h0.1c89.9-1.1,178.7-5,266.4-11.8c-5.3,1.6-10.7,3.2-16,4.8
	C367.4,714.2,244.6,721.5,120,723c-40,0.6-80.2,0.6-120.6-0.1v2.5c40.4,0.6,80.6,0.7,120.6,0.1h0.1c120-1.4,238.3-8.3,354.8-20.5
	c-4.4,1.3-8.9,2.6-13.3,3.9c-145.2,19.9-293.3,31-443.3,32.6c-6.1,0.1-12.2,0.1-18.3,0.2c0.3,0.9,0.6,1.7,1.1,2.5
	c5.7-0.1,11.5-0.1,17.3-0.2c144.1-1.6,286.5-11.9,426.3-30.4c-3.2,0.9-6.4,1.8-9.6,2.7c-135.7,22.5-273.7,36.8-413.2,42.2
	c2.2,0.8,4.5,1.5,6.9,2.3c129.1-5.3,257-18.2,383-38.1c-1.1,0.3-2.2,0.6-3.3,0.9c-98.4,19.1-198,33.6-298.3,43.3h25.7
	c76.3-8,152.1-18.8,227.3-32.2c-57.5,12.4-115.4,23.1-173.5,32.2h16.9c33.9-5.5,67.7-11.5,101.4-18.1c-27.7,6.4-55.5,12.4-83.3,18.1
	h13.6c48.9-10.1,97.5-21.5,145.9-34c18.3-4.1,36.5-8.3,54.7-12.6c17.4-3.5,34.8-7.2,52.1-11c18-3.3,36-6.7,53.9-10.3
	c17.8-2.9,35.5-5.9,53.2-9c18.2-2.5,36.3-5.2,54.3-8c17.5-2,35-4.2,52.5-6.5c18.3-1.7,36.5-3.5,54.7-5.4c17.6-1.2,35.2-2.4,52.7-3.9
	c17.8-0.7,35.6-1.6,53.4-2.5c1.5,0,3,0,4.5-0.1c14.5-0.2,28.9-0.5,43.3-0.9c1.5,0,3-0.1,4.5-0.1c8.1,0.1,16.3,0.2,24.4,0.2
	c9.5,0.1,19.1,0.1,28.6,0c0.1,0,0.1,0,0.2,0c16.7,0.7,33.5,1.2,50.4,1.5c15.8,1,31.7,1.8,47.7,2.5c16.3,1.4,32.7,2.6,49.2,3.6
	c15.4,1.6,31,3.1,46.6,4.3c15.4,1.9,30.9,3.6,46.5,5.1c15.2,2.2,30.5,4.1,45.9,5.8c14.6,2.3,29.3,4.4,44,6.2
	C1316.2,694.5,1331.2,696.8,1346.1,698.9z M1326.8,692c1.6,0.4,3.3,0.8,4.9,1.3c-1.4-0.1-2.8-0.3-4.1-0.4c-1.9-0.4-3.8-0.8-5.6-1.2
	C1323.6,691.8,1325.2,691.9,1326.8,692z M462.1,711.9c-0.2,0-0.5,0.1-0.7,0.1c1-0.3,2.1-0.6,3.1-0.9c0.5-0.1,1-0.1,1.5-0.2
	C464.6,711.2,463.4,711.6,462.1,711.9z M488.6,705.1c-2.4,0.3-4.7,0.7-7.1,1c3.1-0.9,6.2-1.8,9.4-2.8c2.6-0.3,5.1-0.6,7.7-0.9
	C495.3,703.4,492,704.3,488.6,705.1z M1278.4,678.4c-4.7-0.1-9.5-0.3-14.2-0.4c-4.3-1.1-8.6-2.3-12.9-3.5c4.9,0,9.7,0,14.6,0
	C1270,675.8,1274.2,677.1,1278.4,678.4z M1259.5,672.4c-5.3,0-10.7,0-16,0c-4.6-1.3-9.2-2.7-13.8-4c0.6,0,1.2,0,1.8,0
	c4.9-0.1,9.7-0.3,14.6-0.4C1250.5,669.4,1255,670.9,1259.5,672.4z M606.5,675.4c5.6-1.7,11.2-3.3,16.7-5c5.4,0,10.8,0,16.2,0
	c-5.6,1.5-11.2,3-16.9,4.5C617.2,675,611.9,675.2,606.5,675.4z M612,677.6c-5.4,1.4-10.9,2.8-16.3,4.2c-4.7,0.3-9.4,0.6-14.1,0.9
	c5.4-1.6,10.8-3.1,16.1-4.7C602.4,677.8,607.2,677.7,612,677.6z M1154.9,654.8c-5.3-1.5-10.6-3.1-15.9-4.6
	c6.4-0.5,12.9-1.1,19.3-1.6c5.2,1.7,10.3,3.4,15.5,5.1C1167.5,654,1161.2,654.4,1154.9,654.8z M1179.5,655.5
	c4.9,1.6,9.8,3.2,14.7,4.8c-6,0.2-11.9,0.5-17.9,0.7c-5-1.4-10.1-2.9-15.1-4.3C1167.3,656.2,1173.4,655.8,1179.5,655.5z
	 M711.7,653.2c6.6-1.8,13.3-3.7,19.9-5.5c6.2,0.5,12.3,1.1,18.4,1.6c-6.7,1.6-13.3,3.3-19.9,4.9C724,653.9,717.8,653.6,711.7,653.2z
	 M722.3,656.2c-5,1.2-10,2.5-14.9,3.7c-1.6,0.4-3.2,0.8-4.8,1.2c-5.8-0.1-11.7-0.3-17.5-0.4c6.5-1.8,13-3.7,19.5-5.5
	C710.5,655.5,716.4,655.8,722.3,656.2z M1059.3,638.4c-6-1.6-12.1-3.2-18.2-4.8c7.2-1,14.5-2.1,21.8-3.1c5.9,1.8,11.9,3.6,17.8,5.3
	C1073.6,636.7,1066.5,637.6,1059.3,638.4z M1086.1,637.5c5.7,1.7,11.4,3.4,17.1,5.1c-6.8,0.7-13.6,1.4-20.4,2
	c-5.9-1.5-11.7-3-17.6-4.6C1072.2,639.2,1079.2,638.3,1086.1,637.5z M822.9,634.4c7.7-1.8,15.4-3.7,23.1-5.5
	c6.4,1.1,12.9,2.3,19.3,3.4c-7.7,1.6-15.3,3.3-23,4.9C835.9,636.3,829.4,635.3,822.9,634.4z M835.4,638.7
	c-7.5,1.6-14.9,3.2-22.3,4.8c-6.3-0.7-12.7-1.4-19-2.1c7.4-1.8,14.9-3.6,22.4-5.4C822.7,636.8,829,637.8,835.4,638.7z M957,624.5
	c-6.5-1.5-13-3.1-19.5-4.7c7.9-1.6,15.9-3.3,23.9-4.9c6.4,1.7,12.8,3.5,19.2,5.2C972.7,621.6,964.8,623,957,624.5z M986,621.6
	c6.3,1.7,12.5,3.4,18.7,5.1c-7.6,1.2-15.2,2.5-22.8,3.7c-6.4-1.5-12.7-3-19.1-4.5C970.6,624.4,978.3,623,986,621.6z M950.6,625.6
	c-7.7,1.4-15.5,2.9-23.2,4.3c-6.5-1.3-13-2.7-19.4-4c7.8-1.6,15.6-3.3,23.5-4.9C937.8,622.6,944.2,624.1,950.6,625.6z M931.8,618.4
	c-6.6-1.6-13.2-3.2-19.8-4.8c8.2-1.9,16.4-3.7,24.6-5.6c6.5,1.8,13,3.6,19.5,5.3C948,615.1,939.9,616.8,931.8,618.4z M925.7,619.7
	c-8,1.7-16,3.3-23.9,5c-6.6-1.4-13.2-2.7-19.8-4.1c8-1.9,16.1-3.7,24.2-5.5C912.7,616.5,919.2,618.1,925.7,619.7z M895.5,626
	c-7.9,1.6-15.7,3.3-23.5,4.9c-6.5-1.1-13.1-2.3-19.7-3.5c7.9-1.8,15.8-3.7,23.7-5.5C882.5,623.3,889,624.6,895.5,626z M872,633.5
	c6.3,1.1,12.6,2.2,18.8,3.3c-7.4,1.4-14.8,2.8-22.2,4.2c-6.3-0.9-12.7-1.8-19-2.7C857.1,636.6,864.6,635.1,872,633.5z M878.6,632.1
	c7.6-1.6,15.3-3.2,23-4.8c6.4,1.3,12.7,2.6,19.1,3.9c-7.6,1.4-15.2,2.8-22.8,4.2C891.5,634.3,885.1,633.2,878.6,632.1z M927.1,632.5
	c6.2,1.3,12.4,2.5,18.6,3.8c-7.3,1.2-14.6,2.4-21.9,3.5c-6.3-1.1-12.5-2.1-18.8-3.2C912.3,635.2,919.7,633.9,927.1,632.5z
	 M933.8,631.2c7.5-1.4,15.1-2.8,22.7-4.2c6.3,1.5,12.5,3,18.7,4.4c-7.5,1.2-14.9,2.4-22.4,3.6C946.5,633.8,940.1,632.5,933.8,631.2z
	 M981.3,632.9c6.1,1.4,12.1,2.8,18.2,4.3c-7.1,1-14.3,2-21.4,3c-6.2-1.2-12.4-2.5-18.6-3.7C966.7,635.3,974,634.1,981.3,632.9z
	 M988,631.8c7.4-1.2,14.8-2.4,22.3-3.6c6.1,1.6,12.2,3.3,18.3,4.9c-7.4,1-14.6,2.1-22,3.1C1000.5,634.7,994.2,633.3,988,631.8z
	 M1034.3,634.6c5.9,1.6,11.8,3.1,17.7,4.7c-7,0.8-14,1.7-20.9,2.5c-6-1.4-12.1-2.8-18.2-4.2C1020.1,636.6,1027.2,635.6,1034.3,634.6
	z M1035.4,632.1c-6.2-1.7-12.4-3.3-18.6-5c7.5-1.2,15.1-2.5,22.6-3.7c6.1,1.8,12.2,3.7,18.2,5.5C1050.3,630,1042.8,631,1035.4,632.1
	z M1011.2,625.6c-6.3-1.7-12.7-3.4-19.1-5.2c7.8-1.4,15.6-2.9,23.4-4.3c6.2,1.9,12.5,3.8,18.7,5.7
	C1026.6,623.1,1018.9,624.4,1011.2,625.6z M986.8,619c-6.5-1.8-12.9-3.5-19.4-5.3c8-1.6,16.1-3.3,24.2-4.9c6.4,2,12.7,3.9,19.1,5.8
	C1002.6,616.1,994.7,617.5,986.8,619z M962,612.2c-6.6-1.8-13.1-3.6-19.7-5.4c8.3-1.8,16.6-3.7,24.9-5.5c6.5,2,12.9,4,19.4,6
	C978.4,608.9,970.2,610.6,962,612.2z M937,605.4c-6.7-1.8-13.4-3.7-20-5.5c8.5-2.1,17-4.1,25.5-6.1c6.6,2,13.2,4,19.7,6.1
	C953.8,601.6,945.4,603.5,937,605.4z M931.3,606.7c-8.3,1.9-16.6,3.7-24.9,5.6c-6.7-1.6-13.4-3.2-20.1-4.9
	c8.4-2.1,16.8-4.1,25.2-6.2C918.1,603,924.7,604.8,931.3,606.7z M900.6,613.6c-8.2,1.9-16.4,3.8-24.6,5.6
	c-6.7-1.4-13.4-2.8-20.1-4.2c8.3-2.1,16.5-4.2,24.8-6.2C887.3,610.4,893.9,612,900.6,613.6z M870,620.6c-8.1,1.9-16.1,3.8-24.2,5.6
	c-6.7-1.2-13.3-2.4-20-3.6c8.1-2.1,16.2-4.2,24.4-6.2C856.8,617.9,863.4,619.3,870,620.6z M839.6,627.7c-7.9,1.9-15.8,3.7-23.7,5.6
	c-6.6-1-13.2-1.9-19.8-2.9c7.9-2.1,15.8-4.1,23.8-6.2C826.5,625.4,833,626.6,839.6,627.7z M809.4,634.9c-7.7,1.8-15.4,3.7-23,5.5
	c-6.5-0.7-12.9-1.5-19.4-2.3c7.7-2.1,15.4-4.1,23.1-6.1C796.5,633,803,633.9,809.4,634.9z M779.6,642.1c-7.5,1.8-14.9,3.6-22.3,5.4
	c-6.3-0.5-12.6-1.1-18.9-1.6c7.4-2,14.8-4,22.3-6C766.9,640.6,773.3,641.3,779.6,642.1z M758.3,650c5.9,0.5,11.8,1,17.7,1.4
	c-6.3,1.4-12.7,2.8-19,4.1c-5.9-0.3-11.8-0.6-17.8-0.9C745.6,653.1,752,651.6,758.3,650z M765.7,648.2c7.1-1.8,14.3-3.5,21.5-5.2
	c6.2,0.7,12.3,1.4,18.4,2.1c-7.2,1.6-14.4,3.1-21.5,4.7C778,649.2,771.8,648.7,765.7,648.2z M813.7,645.9c5.9,0.7,11.9,1.3,17.8,1.9
	c-6.9,1.3-13.8,2.6-20.6,3.9c-5.9-0.4-11.9-0.9-17.8-1.4C799.9,648.9,806.8,647.4,813.7,645.9z M821.1,644.3
	c7.2-1.5,14.4-3.1,21.6-4.6c6.1,0.9,12.3,1.7,18.4,2.6c-7.2,1.3-14.3,2.7-21.5,4C833.5,645.7,827.3,645,821.1,644.3z M868.8,643.4
	c5.9,0.8,11.8,1.6,17.7,2.4c-6.9,1.1-13.7,2.2-20.5,3.3c-5.9-0.6-11.9-1.2-17.8-1.8C855.1,646,862,644.7,868.8,643.4z M876.4,642
	c7.1-1.3,14.3-2.7,21.5-4c6.1,1,12.2,2.1,18.3,3.1c-7.1,1.1-14.2,2.3-21.2,3.4C888.7,643.7,882.6,642.8,876.4,642z M923.5,642.3
	c5.8,1,11.7,2,17.5,2.9c-6.7,0.9-13.4,1.8-20.1,2.7c-5.9-0.8-11.9-1.5-17.8-2.3C909.9,644.5,916.7,643.4,923.5,642.3z M931.2,641
	c7-1.1,14.1-2.3,21.2-3.4c6,1.2,12,2.4,18,3.6c-7,1-14,1.9-20.9,2.9C943.3,643.1,937.3,642.1,931.2,641z M977.4,642.6
	c5.8,1.1,11.5,2.3,17.2,3.4c-6.6,0.7-13.2,1.5-19.7,2.2c-5.9-0.9-11.8-1.9-17.6-2.8C964,644.4,970.7,643.5,977.4,642.6z
	 M985.1,641.5c6.9-1,13.8-1.9,20.7-2.9c5.9,1.4,11.8,2.7,17.6,4.1c-6.8,0.8-13.6,1.6-20.4,2.4C997,643.9,991.1,642.7,985.1,641.5z
	 M1030.1,644.2c5.6,1.3,11.2,2.5,16.8,3.8c-6.4,0.6-12.8,1.2-19.2,1.7c-5.7-1.1-11.5-2.2-17.2-3.3
	C1017,645.7,1023.5,645,1030.1,644.2z M1037.8,643.3c6.8-0.8,13.5-1.6,20.3-2.4c5.7,1.5,11.4,3,17,4.5c-6.6,0.6-13.3,1.3-19.9,1.9
	C1049.4,645.9,1043.6,644.6,1037.8,643.3z M1081.4,647c5.4,1.4,10.8,2.8,16.2,4.2c-6.3,0.5-12.5,0.9-18.7,1.3
	c-5.5-1.2-11.1-2.4-16.6-3.7C1068.7,648.2,1075,647.6,1081.4,647z M1089.2,646.2c6.6-0.7,13.2-1.3,19.7-2c5.5,1.6,11,3.2,16.4,4.8
	c-6.5,0.5-12.9,1-19.3,1.5C1100.4,649.1,1094.8,647.7,1089.2,646.2z M1131.3,650.8c5.1,1.5,10.2,3,15.3,4.4
	c-6.1,0.3-12.2,0.7-18.2,1c-5.2-1.3-10.4-2.6-15.7-4C1118.8,651.8,1125.1,651.3,1131.3,650.8z M1133.1,648.4
	c-5.6-1.6-11.3-3.3-16.9-5c6.8-0.7,13.5-1.4,20.3-2.1c5.5,1.8,11,3.6,16.5,5.4C1146.4,647.4,1139.7,647.9,1133.1,648.4z
	 M1110.6,641.8c-5.9-1.7-11.7-3.5-17.6-5.2c7.1-0.9,14.1-1.7,21.2-2.6c5.7,1.9,11.4,3.8,17.1,5.7
	C1124.5,640.4,1117.5,641.1,1110.6,641.8z M1087.6,635c-6-1.8-12-3.6-18.1-5.4c7.4-1.1,14.7-2.1,22.1-3.2c5.9,2,11.8,4,17.7,5.9
	C1102.1,633.2,1094.8,634.1,1087.6,635z M1064.3,628c-6.2-1.9-12.3-3.7-18.5-5.6c7.6-1.2,15.3-2.5,22.9-3.7c6,2,12.1,4.1,18.1,6.1
	C1079.3,625.8,1071.8,626.9,1064.3,628z M1040.6,620.8c-6.3-1.9-12.6-3.8-18.9-5.8c7.9-1.4,15.8-2.9,23.7-4.3
	c6.2,2.1,12.4,4.2,18.5,6.3C1056.1,618.3,1048.4,619.6,1040.6,620.8z M1016.6,613.5c-6.4-2-12.9-3.9-19.3-5.9
	c8.1-1.6,16.3-3.3,24.4-4.9c6.3,2.2,12.6,4.3,18.9,6.4C1032.7,610.6,1024.6,612.1,1016.6,613.5z M992.4,606.1c-6.5-2-13.1-4-19.6-6
	c8.4-1.8,16.7-3.7,25.1-5.5c6.4,2.2,12.8,4.4,19.2,6.6C1008.9,602.8,1000.6,604.4,992.4,606.1z M967.8,598.5
	c-6.6-2-13.3-4.1-19.9-6.1c8.6-2,17.2-4.1,25.8-6.1c6.5,2.2,13.1,4.4,19.6,6.7C984.8,594.8,976.3,596.7,967.8,598.5z M943,590.9
	c-6.7-2.1-13.5-4.1-20.2-6.2c8.8-2.2,17.6-4.5,26.4-6.7c6.6,2.2,13.3,4.5,19.9,6.7C960.4,586.8,951.7,588.9,943,590.9z M937.6,592.2
	c-8.6,2.1-17.2,4.1-25.8,6.2c-6.8-1.9-13.5-3.7-20.3-5.6c8.7-2.3,17.4-4.5,26.1-6.8C924.3,588.1,930.9,590.2,937.6,592.2z
	 M906.3,599.8c-8.5,2.1-17.1,4.2-25.5,6.3c-6.8-1.7-13.6-3.3-20.4-5c8.6-2.3,17.2-4.6,25.8-6.9C892.9,596.1,899.6,597.9,906.3,599.8
	z M875.2,607.4c-8.4,2.1-16.8,4.2-25.2,6.3c-6.8-1.4-13.6-2.9-20.4-4.3c8.4-2.3,16.9-4.6,25.4-6.9
	C861.7,604.2,868.5,605.8,875.2,607.4z M844.3,615.2c-8.3,2.1-16.5,4.2-24.8,6.3c-6.7-1.2-13.5-2.4-20.3-3.7
	c8.3-2.3,16.6-4.6,24.9-6.9C830.9,612.4,837.6,613.8,844.3,615.2z M813.6,623.1c-8.1,2.1-16.2,4.2-24.2,6.3c-6.7-1-13.4-2-20.1-3
	c8.1-2.3,16.2-4.6,24.3-6.9C800.3,620.7,807,621.9,813.6,623.1z M783.3,631c-7.9,2.1-15.8,4.2-23.6,6.3c-6.6-0.8-13.2-1.6-19.8-2.4
	c7.9-2.3,15.7-4.6,23.7-6.9C770.2,629,776.7,630,783.3,631z M753.3,639c-7.6,2.1-15.3,4.1-22.9,6.2c-6.4-0.6-12.9-1.2-19.3-1.7
	c7.6-2.3,15.2-4.5,22.8-6.8C740.4,637.4,746.9,638.2,753.3,639z M723.8,647c-6.9,1.9-13.8,3.8-20.7,5.7c-6.3-0.4-12.6-0.7-18.9-1.1
	c6.9-2.1,13.8-4.2,20.7-6.3C711.2,645.9,717.5,646.5,723.8,647z M696,654.7c-6,1.7-12.1,3.4-18,5c-0.8,0.2-1.6,0.5-2.5,0.7
	c-6.1-0.2-12.1-0.3-18.2-0.5c6.7-2.1,13.5-4.2,20.3-6.3C683.8,654,689.9,654.3,696,654.7z M667.8,662.6c-6.4,1.8-12.8,3.6-19.3,5.3
	c-5.8,0-11.6,0.1-17.4,0.1c6.4-2,12.8-3.9,19.2-5.9C656.1,662.2,662,662.4,667.8,662.6z M650.4,670.2c5,0,10.1-0.1,15.1-0.1
	c-5.3,1.3-10.7,2.5-16,3.8c-4.8,0.2-9.6,0.3-14.5,0.5C640.1,673,645.3,671.6,650.4,670.2z M659.4,667.8c6-1.6,11.9-3.3,17.9-5
	c5.5,0.1,11.1,0.3,16.6,0.4c-5.9,1.5-11.9,2.9-17.9,4.4C670.4,667.7,664.9,667.7,659.4,667.8z M704.1,663.5
	c5.2,0.1,10.3,0.2,15.4,0.3c-5.3,1.1-10.7,2.3-16.1,3.4c-2.7,0-5.3,0.1-8,0.1c-2.4,0-4.9,0.1-7.3,0.1
	C693.5,666.1,698.8,664.8,704.1,663.5z M712.9,661.3c6.1-1.5,12.3-3.1,18.5-4.6c5.6,0.3,11.3,0.6,16.9,0.8
	c-3.9,0.8-7.7,1.7-11.6,2.5c-2.4,0.5-4.8,1-7.2,1.6C724,661.5,718.5,661.4,712.9,661.3z M758.2,658c5.3,0.2,10.5,0.5,15.7,0.7
	c-2.6,0.5-5.2,1-7.8,1.5c-3.2,0.6-6.5,1.2-9.8,1.8c-5.1,0-10.2-0.1-15.3-0.2C746.8,660.5,752.5,659.2,758.2,658z M767.1,656
	c5.9-1.3,11.9-2.6,17.9-3.9c5.6,0.4,11.2,0.9,16.8,1.3c-5.9,1.1-11.9,2.2-17.8,3.3C778.4,656.5,772.8,656.3,767.1,656z M811.6,654.2
	c5.2,0.4,10.4,0.8,15.6,1.1c-5.4,0.9-10.9,1.7-16.3,2.6c-5.2-0.2-10.5-0.4-15.7-0.6C800.6,656.2,806.1,655.2,811.6,654.2z
	 M820.6,652.5c6.5-1.2,13-2.4,19.5-3.7c5.6,0.6,11.3,1.2,16.9,1.8c-6.5,1-13,2.1-19.5,3.1C831.9,653.3,826.2,652.9,820.6,652.5z
	 M866.4,651.5c5.3,0.5,10.5,1,15.8,1.6c-6,0.8-12,1.6-18,2.3c-5.2-0.3-10.5-0.7-15.8-1C854.4,653.4,860.4,652.5,866.4,651.5z
	 M875.5,650c6.4-1,12.9-2.1,19.3-3.1c5.6,0.8,11.2,1.5,16.8,2.2c-6.4,0.9-12.9,1.7-19.3,2.5C886.8,651.2,881.2,650.6,875.5,650z
	 M920.8,650.3c5.3,0.7,10.5,1.3,15.7,2c-5.9,0.6-11.7,1.2-17.6,1.8c-5.3-0.5-10.6-1-15.9-1.5C908.9,651.9,914.8,651.1,920.8,650.3z
	 M930,649.1c6.3-0.9,12.7-1.7,19-2.6c5.6,0.9,11.2,1.8,16.7,2.7c-6.3,0.7-12.6,1.4-18.9,2C941.2,650.5,935.6,649.8,930,649.1z
	 M974.3,650.6c5.2,0.8,10.3,1.6,15.5,2.4c-5.7,0.5-11.4,0.9-17.2,1.4c-5.2-0.6-10.5-1.3-15.7-1.9
	C962.7,651.9,968.5,651.2,974.3,650.6z M983.5,649.5c6.2-0.7,12.4-1.4,18.7-2.1c5.5,1.1,10.9,2.1,16.3,3.1
	c-6.1,0.5-12.3,1.1-18.4,1.6C994.6,651.3,989.1,650.4,983.5,649.5z M1026.6,652.1c5.1,1,10.1,1.9,15.1,2.8c-5.6,0.3-11.1,0.7-16.7,1
	c-5.1-0.8-10.2-1.5-15.3-2.3C1015.3,653.1,1021,652.6,1026.6,652.1z M1035.8,651.3c6-0.5,12.1-1.1,18.2-1.7
	c5.3,1.2,10.6,2.4,15.8,3.5c-6,0.4-11.9,0.8-17.9,1.2C1046.6,653.3,1041.2,652.3,1035.8,651.3z M1077.4,654.8
	c4.8,1,9.5,2.1,14.3,3.1c-5.4,0.2-10.8,0.4-16.2,0.6c-4.8-0.9-9.7-1.7-14.5-2.6C1066.4,655.6,1071.9,655.2,1077.4,654.8z
	 M1086.6,654.2c5.9-0.4,11.8-0.9,17.7-1.3c5,1.3,9.9,2.5,14.9,3.8c-5.8,0.3-11.6,0.6-17.4,0.8
	C1096.7,656.4,1091.7,655.3,1086.6,654.2z M1126.5,658.5c4.6,1.2,9.2,2.3,13.9,3.4c-5,0.1-10.1,0.3-15.1,0.4c-0.3,0-0.5,0-0.8,0
	c-1.9-0.4-3.8-0.8-5.7-1.2c-2.8-0.6-5.7-1.2-8.5-1.8C1115.7,659,1121.1,658.8,1126.5,658.5z M1135.6,658c5.8-0.3,11.6-0.6,17.3-1
	c4.8,1.4,9.6,2.8,14.4,4.1c-5.7,0.2-11.3,0.4-17,0.5c-0.8-0.2-1.6-0.4-2.3-0.6C1143.9,660.1,1139.7,659.1,1135.6,658z M1174.2,663.1
	c4.3,1.2,8.7,2.4,13,3.6c-5.1,0-10.2,0.1-15.2,0.1c-4.6-1-9.1-2.1-13.7-3.2C1163.6,663.4,1168.9,663.3,1174.2,663.1z M1183.1,662.8
	c5.7-0.2,11.3-0.4,17-0.7c0.6,0.2,1.3,0.4,1.9,0.6c4,1.3,7.9,2.5,11.9,3.7c-5.5,0.1-11,0.2-16.5,0.2
	C1192.6,665.4,1187.9,664.1,1183.1,662.8z M1220.4,668.5c4.3,1.3,8.5,2.6,12.8,3.8c-4.9,0-9.9-0.1-14.8-0.2
	c-4.4-1.1-8.9-2.2-13.3-3.4C1210.3,668.7,1215.3,668.6,1220.4,668.5z M1230.9,662.6c3.2,1.1,6.3,2.2,9.5,3.3c-3,0.1-6,0.2-8.9,0.2
	c-2.9,0.1-5.7,0.1-8.6,0.1c-4.8-1.5-9.7-3-14.5-4.6c5.9-0.3,11.9-0.5,17.8-0.8C1227.8,661.5,1229.3,662.1,1230.9,662.6z M1221,659.1
	c-6.2,0.3-12.3,0.5-18.5,0.8c-5.1-1.6-10.2-3.3-15.3-4.9c6.3-0.4,12.6-0.8,18.9-1.3C1211.1,655.5,1216,657.3,1221,659.1z
	 M1201,651.9c-6.5,0.4-12.9,0.9-19.4,1.3c-5.3-1.7-10.7-3.5-16-5.2c6.6-0.6,13.2-1.1,19.8-1.7C1190.6,648.1,1195.8,650,1201,651.9z
	 M1180.6,644.5c-6.8,0.6-13.5,1.2-20.3,1.7c-5.6-1.8-11.2-3.7-16.9-5.6c6.9-0.7,13.8-1.5,20.7-2.2
	C1169.7,640.4,1175.1,642.5,1180.6,644.5z M1159.5,636.7c-7.1,0.8-14.1,1.5-21.1,2.2c-5.8-1.9-11.6-3.9-17.5-5.8
	c7.2-0.9,14.4-1.8,21.6-2.7C1148.2,632.5,1153.8,634.6,1159.5,636.7z M1137.9,628.7c-7.3,0.9-14.7,1.8-22,2.8c-6-2-12-4-17.9-6
	c7.5-1.1,14.9-2.2,22.4-3.2C1126.3,624.4,1132.1,626.6,1137.9,628.7z M1115.9,620.6c-7.6,1.1-15.2,2.2-22.8,3.3
	c-6.1-2.1-12.2-4.1-18.4-6.2c7.7-1.3,15.4-2.5,23.2-3.8C1104,616.1,1110,618.3,1115.9,620.6z M1093.6,612.2
	c-7.8,1.3-15.7,2.5-23.5,3.8c-6.2-2.1-12.5-4.2-18.7-6.4c8-1.4,15.9-2.9,23.9-4.3C1081.3,607.6,1087.5,609.9,1093.6,612.2z
	 M1070.8,603.7c-8.1,1.5-16.2,2.9-24.2,4.4c-6.4-2.2-12.7-4.3-19.1-6.5c8.2-1.6,16.4-3.3,24.7-4.9
	C1058.4,599,1064.6,601.4,1070.8,603.7z M1047.8,595.1c-8.3,1.6-16.6,3.3-24.9,4.9c-6.5-2.2-12.9-4.4-19.4-6.6
	c8.4-1.8,16.9-3.6,25.3-5.4C1035.1,590.3,1041.4,592.7,1047.8,595.1z M1024.4,586.3c-8.5,1.8-17.1,3.6-25.6,5.5
	c-6.6-2.2-13.1-4.5-19.7-6.7c8.6-2,17.3-4,26-6C1011.5,581.5,1017.9,583.9,1024.4,586.3z M1000.6,577.5c-8.8,2-17.5,4-26.2,6.1
	c-6.7-2.3-13.3-4.5-20-6.8c8.8-2.2,17.7-4.4,26.6-6.6C987.5,572.6,994.1,575,1000.6,577.5z M956.7,561.1c6.7,2.5,13.3,4.9,19.9,7.4
	c-9,2.2-17.9,4.4-26.8,6.6c-6.8-2.3-13.5-4.6-20.3-6.9C938.5,565.9,947.6,563.5,956.7,561.1z M924.4,569.7
	c6.7,2.3,13.5,4.5,20.2,6.8c-8.9,2.2-17.8,4.5-26.6,6.8c-6.8-2.1-13.6-4.2-20.5-6.3C906.5,574.5,915.4,572.1,924.4,569.7z
	 M892.4,578.4c6.8,2.1,13.6,4.1,20.3,6.2c-8.8,2.3-17.6,4.6-26.4,6.9c-6.8-1.9-13.7-3.8-20.6-5.7
	C874.6,583.3,883.5,580.8,892.4,578.4z M860.6,587.2c6.8,1.9,13.6,3.7,20.4,5.6c-8.7,2.3-17.4,4.6-26.1,6.9
	c-6.9-1.7-13.7-3.4-20.6-5C843.1,592.2,851.8,589.7,860.6,587.2z M829.1,596.2c6.8,1.7,13.6,3.3,20.4,5c-8.6,2.3-17.2,4.7-25.7,7
	c-6.9-1.5-13.7-2.9-20.6-4.4C811.8,601.3,820.5,598.7,829.1,596.2z M798,605.4c6.8,1.5,13.6,2.9,20.4,4.4c-8.5,2.3-16.9,4.7-25.3,7
	c-6.8-1.2-13.7-2.5-20.5-3.8C781,610.4,789.5,607.9,798,605.4z M767.2,614.6c6.8,1.2,13.5,2.5,20.3,3.7c-8.3,2.3-16.5,4.7-24.7,7
	c-6.8-1-13.5-2.1-20.3-3.1C750.6,619.7,758.9,617.1,767.2,614.6z M737,624c6.7,1,13.4,2.1,20,3.1c-8.1,2.3-16.1,4.7-24.1,7
	c-6.7-0.8-13.4-1.6-20.1-2.5C720.8,629,728.9,626.5,737,624z M707.2,633.4c6.6,0.8,13.1,1.6,19.7,2.4c-7.8,2.3-15.6,4.6-23.4,7
	c-6.6-0.6-13.1-1.2-19.7-1.8C691.6,638.4,699.4,635.9,707.2,633.4z M678.1,642.8c6.4,0.6,12.9,1.2,19.3,1.8
	c-7.1,2.2-14.3,4.3-21.3,6.5c-6.4-0.4-12.9-0.8-19.3-1.2C663.8,647.5,670.9,645.1,678.1,642.8z M650.6,651.9
	c6.3,0.4,12.6,0.8,18.9,1.2c-7,2.2-14,4.3-20.9,6.5h-0.1c-6.2-0.2-12.5-0.4-18.8-0.6C636.7,656.6,643.6,654.2,650.6,651.9z
	 M623.3,661.1L623.3,661.1c6.1,0.2,12.1,0.4,18.2,0.6c-6.7,2.1-13.5,4.2-20.2,6.2c-6,0-12.1,0-18.1,0
	C609.8,665.7,616.6,663.4,623.3,661.1z M596.1,670.3c5.7,0,11.4,0.1,17.1,0.1c-5.9,1.8-11.8,3.5-17.7,5.3c-5.7,0.2-11.4,0.3-17,0.5
	C584.4,674.2,590.2,672.3,596.1,670.3z M570.5,678.7c5.3-0.1,10.6-0.3,15.9-0.4c-5.9,1.7-11.8,3.4-17.7,5.1
	c-5.2,0.3-10.4,0.6-15.6,0.9C558.9,682.4,564.7,680.6,570.5,678.7z M544,687.2c4.7-0.2,9.3-0.5,14-0.8c-5.3,1.5-10.6,3-15.8,4.4
	c-4.6,0.4-9.2,0.8-13.8,1.2C533.6,690.4,538.8,688.8,544,687.2z M515.1,701.2c-0.4,0.1-0.9,0.1-1.3,0.2c1.3-0.4,2.7-0.7,4-1.1
	c0.7-0.1,1.5-0.2,2.2-0.3C518.4,700.5,516.8,700.8,515.1,701.2z M515.5,698.1c-3.7,0.4-7.4,0.8-11.1,1.3c4.4-1.3,8.7-2.6,13.1-4
	c3.8-0.3,7.6-0.6,11.4-0.9C524.5,695.7,520,696.9,515.5,698.1z M542.4,694.9c-2.7,0.3-5.3,0.7-8,1c3.4-0.9,6.8-1.8,10.2-2.8
	c2.8-0.2,5.5-0.5,8.3-0.7C549.4,693.2,545.9,694,542.4,694.9z M569,691.5c-0.8,0.1-1.7,0.2-2.5,0.3c1.6-0.4,3.2-0.8,4.9-1.2
	c1.1-0.1,2.2-0.2,3.3-0.3C572.7,690.7,570.9,691.1,569,691.5z M569,688.4c-3.9,0.4-7.9,0.8-11.8,1.1c4.6-1.3,9.1-2.5,13.7-3.8
	c4-0.2,8-0.5,12.1-0.7C578.4,686.1,573.7,687.3,569,688.4z M596,685.8c-2.9,0.3-5.8,0.6-8.7,0.9c3.5-0.9,7-1.8,10.5-2.7
	c3-0.2,6.1-0.4,9.1-0.6C603.3,684.3,599.6,685,596,685.8z M622.9,683c-1.1,0.1-2.2,0.2-3.3,0.3c1.7-0.4,3.4-0.8,5.1-1.2
	c1.4-0.1,2.7-0.2,4.1-0.3C626.8,682.3,624.9,682.7,622.9,683z M622.7,680c-4.1,0.3-8.1,0.6-12.2,0.8c4.7-1.2,9.4-2.4,14.1-3.7
	c4.3-0.1,8.5-0.3,12.8-0.5C632.5,677.8,627.6,678.9,622.7,680z M649.9,677.9c-3.1,0.2-6.2,0.5-9.3,0.7c3.6-0.8,7.1-1.7,10.7-2.5
	c3.3-0.1,6.6-0.3,10-0.5C657.5,676.4,653.7,677.2,649.9,677.9z M676.5,675.8l-3.9,0.3c2-0.4,3.9-0.8,5.9-1.2
	c1.6-0.1,3.2-0.1,4.8-0.2C681.1,675.1,678.8,675.4,676.5,675.8z M676.8,672.6c-4.3,0.2-8.5,0.4-12.8,0.6c4.6-1.1,9.2-2.2,13.7-3.3
	c4.5-0.1,9-0.1,13.5-0.2C686.4,670.7,681.6,671.6,676.8,672.6z M703.5,671.3c-3.3,0.2-6.6,0.4-9.9,0.6c3.8-0.8,7.6-1.6,11.4-2.4
	c3.4-0.1,6.8-0.1,10.2-0.2C711.3,670,707.4,670.6,703.5,671.3z M730.6,669.8c-1.6,0.1-3.3,0.2-5,0.3c2.1-0.4,4.2-0.7,6.3-1.1
	c1.8,0,3.6-0.1,5.4-0.1C735.2,669.1,732.9,669.5,730.6,669.8z M730.6,666.6c-4.5,0.1-8.9,0.2-13.4,0.3c4.6-1,9.2-2,13.8-3
	c4.5,0.1,9,0.1,13.5,0.2C739.8,664.9,735.2,665.8,730.6,666.6z M757.6,666c-3.5,0.1-7.1,0.2-10.6,0.3c3.6-0.7,7.2-1.3,10.8-2
	c3.6,0,7.3,0,10.9,0.1C765,664.9,761.3,665.4,757.6,666z M784.5,665.1c-2,0.1-4.1,0.1-6.1,0.2c2-0.3,4-0.6,5.9-0.9
	c2.1,0,4.2,0,6.4,0C788.7,664.7,786.6,664.9,784.5,665.1z M795.6,660.3c-4.1,0.6-8.1,1.2-12.2,1.8c-4.5,0-9-0.1-13.5-0.1
	c5-0.9,10.1-1.9,15.1-2.9c4.7,0.2,9.4,0.4,14.1,0.6C797.9,659.9,796.7,660.1,795.6,660.3z M810.5,662.1c-3.6,0-7.3,0-10.9,0
	c4-0.6,8.1-1.3,12.1-1.9c3.8,0.1,7.7,0.3,11.5,0.4C818.9,661.1,814.7,661.6,810.5,662.1z M837.2,662c-2,0-4,0-6,0
	c2.3-0.3,4.7-0.6,7-0.9c2.2,0.1,4.5,0.1,6.7,0.2C842.4,661.5,839.8,661.7,837.2,662z M837.7,658.8c-4.6-0.1-9.3-0.3-13.9-0.5
	c4.7-0.8,9.5-1.5,14.3-2.3c4.6,0.3,9.2,0.6,13.8,0.9C847.1,657.6,842.4,658.2,837.7,658.8z M864.5,659.5c-3.8-0.1-7.6-0.2-11.4-0.3
	c3.8-0.5,7.6-1,11.4-1.5c3.8,0.2,7.6,0.5,11.4,0.7C872.1,658.8,868.3,659.2,864.5,659.5z M892.5,654.1c4.7,0.5,9.5,0.9,14.2,1.3
	c-5.3,0.5-10.6,1.1-15.9,1.6c-4.7-0.3-9.4-0.5-14.1-0.8C882,655.5,887.3,654.8,892.5,654.1z M891.3,660.1c-2.3,0-4.5-0.1-6.8-0.1
	c2.2-0.2,4.3-0.4,6.5-0.6c2.3,0.1,4.5,0.3,6.8,0.4C895.6,659.8,893.4,660,891.3,660.1z M917.5,658.4c-3.8-0.2-7.7-0.4-11.5-0.6
	c4.3-0.4,8.5-0.9,12.8-1.3c3.9,0.3,7.7,0.7,11.6,1C926.1,657.9,921.8,658.1,917.5,658.4z M946.5,653.6c4.7,0.6,9.4,1.2,14.1,1.7
	c-5.2,0.4-10.3,0.8-15.4,1.1c-4.7-0.4-9.5-0.8-14.2-1.2C936.1,654.7,941.3,654.2,946.5,653.6z M944.2,659.7
	c-2.4-0.1-4.8-0.2-7.2-0.3c2.6-0.2,5.2-0.4,7.8-0.6c2.4,0.2,4.8,0.4,7.2,0.6C949.4,659.5,946.8,659.6,944.2,659.7z M971.3,658.6
	c-3.9-0.3-7.8-0.6-11.7-0.9c4.1-0.3,8.3-0.7,12.4-1c3.9,0.5,7.7,0.9,11.6,1.4C979.5,658.3,975.4,658.4,971.3,658.6z M999.3,654.5
	c4.6,0.7,9.3,1.4,13.9,2.1c-5,0.3-10,0.5-15,0.8c-4.7-0.5-9.4-1.1-14-1.6C989.2,655.3,994.2,654.9,999.3,654.5z M997.5,660.6
	c-2.5-0.2-5.1-0.4-7.6-0.6c2.5-0.1,5-0.3,7.5-0.4c2.5,0.3,5,0.6,7.5,0.8C1002.4,660.5,1000,660.6,997.5,660.6z M1023.2,660.1
	c-3.8-0.4-7.6-0.8-11.4-1.2c4.1-0.2,8.1-0.5,12.2-0.7c3.7,0.6,7.5,1.1,11.2,1.7C1031.2,659.9,1027.2,660,1023.2,660.1z
	 M1050.7,656.6c4.4,0.8,8.8,1.6,13.1,2.4c-4.9,0.2-9.7,0.3-14.5,0.5c-4.5-0.6-8.9-1.3-13.4-1.9
	C1040.8,657.2,1045.8,656.9,1050.7,656.6z M1047.5,662.7c-2.4-0.2-4.9-0.5-7.3-0.8c2.6-0.1,5.2-0.2,7.8-0.2c2.4,0.3,4.9,0.7,7.3,1
	C1052.7,662.7,1050.1,662.7,1047.5,662.7z M1073.2,662.8c-3.7-0.5-7.4-1-11.1-1.5c4-0.1,8-0.3,12-0.4c3.7,0.7,7.3,1.3,11,1.9
	C1081.1,662.8,1077.1,662.8,1073.2,662.8z M1085.7,660.4c4.8-0.2,9.7-0.4,14.5-0.6c4.3,0.9,8.6,1.8,12.8,2.7
	c-4.7,0.1-9.4,0.1-14.1,0.2c-3.1-0.5-6.2-1-9.3-1.6C1088.3,660.8,1087,660.6,1085.7,660.4z M1096.2,665.7c-2.2-0.3-4.4-0.5-6.6-0.8
	c2.5,0,4.9,0,7.4-0.1c2.1,0.4,4.3,0.7,6.4,1.1C1101,665.9,1098.6,665.8,1096.2,665.7z M1121.4,666.4c-3.5-0.5-7-1.1-10.5-1.7
	c3.9-0.1,7.9-0.1,11.8-0.2c3.3,0.7,6.6,1.4,9.9,2C1128.9,666.5,1125.1,666.4,1121.4,666.4z M1148.4,663.9c3.9,1,7.9,1.9,11.8,2.9
	c-4.6,0-9.2,0-13.8-0.1c-4.2-0.8-8.3-1.6-12.4-2.5C1138.8,664.1,1143.6,664,1148.4,663.9z M1144.4,669.8c-2.3-0.3-4.7-0.6-7-1
	c2.4,0,4.8,0.1,7.1,0.1c2.1,0.4,4.2,0.8,6.3,1.2C1148.7,670,1146.5,669.9,1144.4,669.8z M1168.7,670.8c-3.5-0.6-6.9-1.2-10.4-1.9
	c3.8,0,7.6,0,11.5,0c3.3,0.7,6.5,1.5,9.8,2.2C1176,671.1,1172.3,670.9,1168.7,670.8z M1195,668.8c3.9,1,7.7,2,11.6,3
	c-4.4-0.1-8.8-0.2-13.2-0.3c-4.1-0.9-8.1-1.7-12.2-2.6C1185.9,668.9,1190.4,668.9,1195,668.8z M1191.3,674.5c-2.2-0.3-4.3-0.7-6.5-1
	c2.2,0.1,4.3,0.1,6.5,0.2c2,0.4,4,0.8,5.9,1.2C1195.2,674.8,1193.2,674.7,1191.3,674.5z M1215.4,676c-3.4-0.6-6.7-1.3-10.1-2
	c3.6,0.1,7.1,0.1,10.7,0.2c3.1,0.8,6.2,1.5,9.3,2.3C1222.1,676.3,1218.7,676.2,1215.4,676z M1240.9,674.5c3.7,1.1,7.5,2.1,11.2,3.1
	c-4.2-0.2-8.4-0.3-12.5-0.5c-3.9-0.9-7.9-1.8-11.8-2.8C1232.2,674.4,1236.6,674.4,1240.9,674.5z M1237.2,680c-2-0.3-3.9-0.7-5.9-1.1
	c1.9,0.1,3.8,0.2,5.7,0.3c1.9,0.4,3.8,0.8,5.7,1.3C1240.9,680.3,1239.1,680.1,1237.2,680z M1261.1,681.8c-3.2-0.7-6.5-1.4-9.7-2.1
	c3.4,0.1,6.7,0.2,10.1,0.3c3,0.8,6,1.6,9,2.3C1267.4,682.2,1264.2,682,1261.1,681.8z M1285.9,680.7c3.7,1.1,7.4,2.2,11.1,3.2
	c-4-0.2-8-0.4-12-0.6c-3.9-1-7.8-1.9-11.7-2.9C1277.5,680.5,1281.7,680.6,1285.9,680.7z M1283,686.1c-2-0.4-3.9-0.7-5.9-1.1
	c1.7,0.1,3.5,0.2,5.2,0.3c1.7,0.4,3.5,0.9,5.2,1.3C1286,686.4,1284.5,686.3,1283,686.1z M1306.3,686.5c3,0.8,5.9,1.6,8.9,2.4
	c-3-0.2-6-0.5-9.1-0.7c-3.1-0.7-6.2-1.4-9.3-2.1C1300,686.2,1303.1,686.4,1306.3,686.5z"/>
<radialGradient id="SVGID_2_" cx="569.6612" cy="637.7322" r="192.084" gradientTransform="matrix(8.009 0 0 -2.9958 -3284.6396 2296.0264)" gradientUnits="userSpaceOnUse">
	<stop  offset="0" style="stop-color:#6DCEF5"/>
	<stop  offset="0.4236" style="stop-color:#6CCCF3"/>
	<stop  offset="0.5762" style="stop-color:#67C5ED"/>
	<stop  offset="0.6849" style="stop-color:#5EBAE3"/>
	<stop  offset="0.7729" style="stop-color:#51A9D4"/>
	<stop  offset="0.8482" style="stop-color:#4193C0"/>
	<stop  offset="0.9137" style="stop-color:#2D78A8"/>
	<stop  offset="0.9727" style="stop-color:#15598D"/>
	<stop  offset="0.9737" style="stop-color:#15588C"/>
	<stop  offset="1" style="stop-color:#003972"/>
</radialGradient>
<path class="st1" d="M327.6,1.4h-33.4c284.6,22.4,578.3,49.2,850.6,87.1c74.9,10.3,148.2,21.5,219.2,33.6v-3.3
	c-70.1-11.9-142.4-22.9-216.3-33C885,49.3,602.6,23.1,327.6,1.4z M144.5,1.4h-29.2C478,33.2,869.3,68.8,1226,119.5
	c46.7,6.6,92.7,13.4,138,20.6v-3.3c-44.4-6.9-89.4-13.6-135-20C880.7,67.3,499.7,32.4,144.5,1.4z M544.2,1.4H510
	C708.7,17,907.1,36.2,1094.4,61.6c93.1,12.5,183.3,26.6,269.6,42.4v-3.4c-85.4-15.6-174.7-29.4-266.6-41.8
	C919.8,34.8,732.4,16.4,544.2,1.4z M11.1,14.8c-1.2,0.7-2.3,1.4-3.3,2.2c54,6.2,108.8,12.5,164.4,18.8
	C556.2,79.9,975,124.4,1364,175.7v-3.2c-388.6-51-806.6-95.3-1190-139.1C118.9,27.1,64.6,21,11.1,14.8z M38.9,4.9
	c-2.6,0.5-5.1,1.1-7.5,1.8c3.5,0.3,6.9,0.7,10.3,1C466,51,939.6,96.5,1364,157.9v-3.3C939.7,93.5,466.8,48.3,43.3,5.4
	C41.8,5.2,40.4,5.1,38.9,4.9z M1093.4,1.4c95.3,13.3,186.1,29.3,270.6,48.4v-3.5c-78.2-17.4-161.6-32.3-248.8-44.8h-21.8V1.4z
	 M1363.7,27.8c-40.6-9.6-82.9-18.4-126.5-26.4h-18.1c50.2,9,98.6,19,144.9,30.1V30C1364,29.2,1363.9,28.5,1363.7,27.8z M-0.5,42.1
	C418.7,103.3,897.9,160.8,1364,211.4v-3.2C897.8,157.7,418.5,100.4-0.5,39.5V42.1z M0.2,26.2c-0.3,0.8-0.5,1.7-0.6,2.5
	c199.9,26.1,412,52.3,628.8,78c243.6,29.2,493.2,57.9,735.5,86.8v-3.2c-241.6-28.7-490.4-57.2-733.3-86.3
	C413.2,78.4,200.6,52.2,0.2,26.2z M958.7,1.4h-26.3c36.4,4,72.3,8.3,107.8,12.9c114,14.6,222.7,32.3,323.8,53.7v-3.5
	c-100.4-21-208.1-38.5-320.9-52.8C1015.3,8,987.1,4.6,958.7,1.4z M764.9,1.4h-31.8c112.1,10,222.4,21.7,328.7,35.8
	C1167.2,51,1268.5,67.2,1364,86v-3.4c-94.7-18.5-195-34.5-299.3-48.1C967.5,21.6,867,10.7,764.9,1.4z M-0.5,121.2v3
	c141.1,34.3,291.2,66.5,450.9,94.7c276,49.2,582.5,83.9,913.7,98.1v-3.1c-330.1-14.1-635.6-48.6-910.9-97.5
	C292.4,188,141.3,155.6-0.5,121.2z M-0.5,135.8v3c145.7,37.8,301.7,73.1,468.9,103.2c268.4,48.8,568,81.7,895.7,92.4v-3.1
	c-326.6-10.7-625.3-43.4-892.9-91.9C302.9,209.3,145.9,173.8-0.5,135.8z M-0.5,150.8v3.1c148.3,41,308,78.9,480.4,110.6
	c262.6,48.6,557.8,80,884.1,87.6V349c-325.3-7.5-619.5-38.7-881.3-87C309.1,230,148.5,192-0.5,150.8z M-0.5,181.5v3.2
	c149.7,46.5,312.4,88.9,491.1,123c254.8,48.9,545.3,77.8,873.4,79.3v-3.1c-327.1-1.5-616.6-30.1-870.6-78.8
	C313.6,270.8,149.9,228.3-0.5,181.5z M-0.5,166v3.2c149.5,43.9,311.3,84.1,487.4,117.1C745.1,335,1037.4,365,1364,369.5v-3.1
	c-325.6-4.4-616.9-34.3-874.3-82.7C312.4,250.5,149.7,210.1-0.5,166z M-0.5,79v2.8c101.2,19.6,206.2,38.7,315,56.8
	C637.3,193,993.8,236.8,1364,264.3v-3.1c-369.2-27.3-724.8-70.9-1046.9-125C207.4,117.9,101.5,98.7-0.5,79z M-0.5,65.5v2.7
	c67.1,11.9,135.9,23.7,206.3,35.2C561.6,162.3,958.7,212.1,1364,246.7v-3.2C959.6,209.1,563.5,159.6,208.3,101
	C137.1,89.4,67.4,77.5-0.5,65.5z M-0.5,52.1v2.7c6.7,1.1,13.4,2.2,20.2,3.3C427.2,124.6,895.9,183.8,1364,229v-3.2
	c-467.2-45-935.1-103.9-1341.9-170C14.5,54.6,7,53.4-0.5,52.1z M-0.5,92.8v2.8c121.2,25.4,248.4,49.9,381.3,72.5
	c301.2,51.7,633.3,91.6,983.2,113.8v-3.1c-348.9-22.1-680.1-61.7-980.5-113.2C249.6,143,121.5,118.4-0.5,92.8z M-0.5,106.8v2.9
	c133.5,30.2,274.6,58.9,423.4,84.7c286.5,50.1,603.1,87.1,941.1,105v-3.1c-337-17.8-652.6-54.5-938.4-104.4
	C275.8,166.1,133.8,137.2-0.5,106.8z"/>
<g>
	
		<linearGradient id="SVGID_3_" gradientUnits="userSpaceOnUse" x1="79.0302" y1="827.3422" x2="82.898" y2="823.4744" gradientTransform="matrix(42 0 0 -37 -3312 30886)">
		<stop  offset="0" style="stop-color:#1896A9"/>
		<stop  offset="1" style="stop-color:#1790A4"/>
	</linearGradient>
	<polygon class="st2" points="79,255.4 19.9,367.6 210.8,381.2 	"/>
	
		<linearGradient id="SVGID_4_" gradientUnits="userSpaceOnUse" x1="77.0726" y1="818.6623" x2="81.0012" y2="814.7337" gradientTransform="matrix(28 0 0 -20 -2154 16741)">
		<stop  offset="0" style="stop-color:#1798AB"/>
		<stop  offset="1" style="stop-color:#1697AA"/>
	</linearGradient>
	<polygon class="st3" points="19.9,367.6 3.2,386.4 3.2,388.6 129,435.6 	"/>
	
		<linearGradient id="SVGID_5_" gradientUnits="userSpaceOnUse" x1="80.0974" y1="819.4345" x2="83.9139" y2="815.618" gradientTransform="matrix(42 0 0 -20 -3312 16741)">
		<stop  offset="0" style="stop-color:#1797A9"/>
		<stop  offset="1" style="stop-color:#1794A7"/>
	</linearGradient>
	<polygon class="st4" points="19.9,367.6 129,435.6 210.8,381.2 	"/>
	
		<linearGradient id="SVGID_6_" gradientUnits="userSpaceOnUse" x1="76.0691" y1="830.3919" x2="80.033" y2="826.428" gradientTransform="matrix(30 0 0 -40 -2333 33355)">
		<stop  offset="0" style="stop-color:#0D7D91"/>
		<stop  offset="1" style="stop-color:#148CA0"/>
	</linearGradient>
	<polygon class="st5" points="3.2,177.4 3.2,268.7 79,255.4 	"/>
	
		<linearGradient id="SVGID_7_" gradientUnits="userSpaceOnUse" x1="70.8905" y1="826.8668" x2="74.9224" y2="822.8348" gradientTransform="matrix(17 0 0 -32 -1254 26723)">
		<stop  offset="0" style="stop-color:#199BAF"/>
		<stop  offset="1" style="stop-color:#199AAE"/>
	</linearGradient>
	<polygon class="st6" points="3.2,348.5 3.2,386.4 19.9,367.6 	"/>
	
		<linearGradient id="SVGID_8_" gradientUnits="userSpaceOnUse" x1="77.0006" y1="827.8237" x2="80.5404" y2="824.2839" gradientTransform="matrix(30 0 0 -33 -2333 27550)">
		<stop  offset="0" style="stop-color:#1998AC"/>
		<stop  offset="1" style="stop-color:#1894A8"/>
	</linearGradient>
	<polygon class="st7" points="79,255.4 3.2,268.7 3.2,348.5 19.9,367.6 	"/>
	
		<linearGradient id="SVGID_9_" gradientUnits="userSpaceOnUse" x1="80.0226" y1="833.9752" x2="83.8308" y2="830.1669" gradientTransform="matrix(74 0 0 -58 -5991 48309)">
		<stop  offset="0" style="stop-color:#12778C"/>
		<stop  offset="1" style="stop-color:#156B81"/>
	</linearGradient>
	<polygon class="st8" points="3.2,2.3 3.2,119.9 171.3,2.3 	"/>
	
		<linearGradient id="SVGID_10_" gradientUnits="userSpaceOnUse" x1="91.6316" y1="819.5953" x2="95.6543" y2="815.5726" gradientTransform="matrix(53 0 0 -36 -4078 30194)">
		<stop  offset="0" style="stop-color:#1697AE"/>
		<stop  offset="1" style="stop-color:#1797AB"/>
	</linearGradient>
	<polygon class="st9" points="848.2,766.9 905.6,766.9 897.2,738.2 	"/>
	
		<linearGradient id="SVGID_11_" gradientUnits="userSpaceOnUse" x1="96.1315" y1="817.0447" x2="100.496" y2="812.6802" gradientTransform="matrix(43 0 0 -32 -3202 26858)">
		<stop  offset="0" style="stop-color:#1A9CB1"/>
		<stop  offset="1" style="stop-color:#1795A8"/>
	</linearGradient>
	<polygon class="st10" points="897.2,738.2 905.6,766.9 1077.3,766.9 1092.6,758.6 	"/>
	
		<linearGradient id="SVGID_12_" gradientUnits="userSpaceOnUse" x1="83.8827" y1="824.2947" x2="87.8133" y2="820.3641" gradientTransform="matrix(24 0 0 -29 -1776 24250)">
		<stop  offset="0" style="stop-color:#1891A5"/>
		<stop  offset="1" style="stop-color:#158EA1"/>
	</linearGradient>
	<polygon class="st11" points="210.8,381.2 301.7,476.4 319.9,377.8 	"/>
	
		<linearGradient id="SVGID_13_" gradientUnits="userSpaceOnUse" x1="89.3181" y1="822.6437" x2="93.167" y2="818.7949" gradientTransform="matrix(10 0 0 -29 -594 24250)">
		<stop  offset="0" style="stop-color:#148B9E"/>
		<stop  offset="1" style="stop-color:#1690A2"/>
	</linearGradient>
	<polygon class="st12" points="301.7,476.4 347.2,469.6 319.9,377.8 	"/>
	
		<linearGradient id="SVGID_14_" gradientUnits="userSpaceOnUse" x1="75.741" y1="822.0092" x2="79.9768" y2="817.7734" gradientTransform="matrix(29 0 0 -27 -2259 22600)">
		<stop  offset="0" style="stop-color:#1795AA"/>
		<stop  offset="1" style="stop-color:#1592A7"/>
	</linearGradient>
	<polygon class="st13" points="3.2,465.2 3.2,489.1 33.6,473 	"/>
	
		<linearGradient id="SVGID_15_" gradientUnits="userSpaceOnUse" x1="75.7974" y1="821.7478" x2="79.4201" y2="818.1251" gradientTransform="matrix(29 0 0 -25 -2259 20917)">
		<stop  offset="0" style="stop-color:#1899AD"/>
		<stop  offset="1" style="stop-color:#1798AB"/>
	</linearGradient>
	<polygon class="st14" points="3.2,391.9 3.2,465.2 33.6,473 	"/>
	
		<linearGradient id="SVGID_16_" gradientUnits="userSpaceOnUse" x1="77.0855" y1="821.2535" x2="81.2197" y2="817.1193" gradientTransform="matrix(28 0 0 -25 -2154 20917)">
		<stop  offset="0" style="stop-color:#1798AB"/>
		<stop  offset="1" style="stop-color:#1696A9"/>
	</linearGradient>
	<polygon class="st15" points="129,435.6 3.2,388.6 3.2,391.9 33.6,473 	"/>
	
		<linearGradient id="SVGID_17_" gradientUnits="userSpaceOnUse" x1="95.601" y1="822.203" x2="99.4869" y2="818.317" gradientTransform="matrix(61 0 0 -23 -4644 19237)">
		<stop  offset="0" style="stop-color:#145E74"/>
		<stop  offset="1" style="stop-color:#135A71"/>
	</linearGradient>
	<polygon class="st16" points="1329,425.4 1366,390 1366,347.8 1133.5,350.6 	"/>
	
		<linearGradient id="SVGID_18_" gradientUnits="userSpaceOnUse" x1="94.7023" y1="832.933" x2="98.6813" y2="828.954" gradientTransform="matrix(41 0 0 -67 -3056 55855)">
		<stop  offset="0" style="stop-color:#12566D"/>
		<stop  offset="1" style="stop-color:#145D74"/>
	</linearGradient>
	<polygon class="st17" points="992.6,180.6 806.3,82 901.7,309.8 	"/>
	
		<linearGradient id="SVGID_19_" gradientUnits="userSpaceOnUse" x1="93.4045" y1="830.1675" x2="97.2375" y2="826.3345" gradientTransform="matrix(51 0 0 -50 -3865 41706)">
		<stop  offset="0" style="stop-color:#16667D"/>
		<stop  offset="1" style="stop-color:#135D74"/>
	</linearGradient>
	<polygon class="st18" points="901.7,309.8 1133.5,350.6 992.6,180.6 	"/>
	
		<linearGradient id="SVGID_20_" gradientUnits="userSpaceOnUse" x1="76.7625" y1="819.4486" x2="80.7363" y2="815.4748" gradientTransform="matrix(21 0 0 -23 -1566 19263)">
		<stop  offset="0" style="stop-color:#1796A9"/>
		<stop  offset="1" style="stop-color:#1796AA"/>
	</linearGradient>
	<polygon class="st19" points="129,435.6 33.6,473 83.6,513.8 	"/>
	
		<linearGradient id="SVGID_21_" gradientUnits="userSpaceOnUse" x1="106.0647" y1="810.9641" x2="110.986" y2="806.0427" gradientTransform="matrix(29 0 0 -22 -1997 18502)">
		<stop  offset="0" style="stop-color:#148A9E"/>
		<stop  offset="1" style="stop-color:#108598"/>
	</linearGradient>
	<polygon class="st20" points="1224.4,683.8 1092.6,758.6 1165.4,748.4 	"/>
	
		<linearGradient id="SVGID_22_" gradientUnits="userSpaceOnUse" x1="98.5094" y1="830.7305" x2="102.7234" y2="826.5165" gradientTransform="matrix(39 0 0 -31 -2849 25829)">
		<stop  offset="0" style="stop-color:#105169"/>
		<stop  offset="1" style="stop-color:#104C64"/>
	</linearGradient>
	<polygon class="st21" points="1169.9,112.6 1015.4,75.2 992.6,180.6 	"/>
	
		<linearGradient id="SVGID_23_" gradientUnits="userSpaceOnUse" x1="100.8503" y1="833.3809" x2="104.917" y2="829.3143" gradientTransform="matrix(34 0 0 -46 -2429 38304)">
		<stop  offset="0" style="stop-color:#114B63"/>
		<stop  offset="1" style="stop-color:#0F455E"/>
	</linearGradient>
	<polygon class="st22" points="1169.9,112.6 1064.1,2.3 1018.1,2.3 1015.4,75.2 	"/>
	
		<linearGradient id="SVGID_24_" gradientUnits="userSpaceOnUse" x1="87.1855" y1="833.9063" x2="91.7308" y2="829.3609" gradientTransform="matrix(48 0 0 -80 -3706 66685)">
		<stop  offset="0" style="stop-color:#16768C"/>
		<stop  offset="1" style="stop-color:#15657B"/>
	</linearGradient>
	<polygon class="st23" points="679,313.2 710.8,41.2 492.6,313.2 	"/>
	
		<linearGradient id="SVGID_25_" gradientUnits="userSpaceOnUse" x1="88.6272" y1="830.8433" x2="93.191" y2="826.2795" gradientTransform="matrix(60 0 0 -77 -4672 64262)">
		<stop  offset="0" style="stop-color:#2F91A2"/>
		<stop  offset="1" style="stop-color:#27798D"/>
	</linearGradient>
	<polygon class="st24" points="679,313.2 629,571.6 901.7,309.8 	"/>
	
		<linearGradient id="SVGID_26_" gradientUnits="userSpaceOnUse" x1="96.04" y1="833.1822" x2="100.3945" y2="828.8278" gradientTransform="matrix(28 0 0 -80 -2005 66685)">
		<stop  offset="0" style="stop-color:#135A73"/>
		<stop  offset="1" style="stop-color:#135F76"/>
	</linearGradient>
	<polygon class="st25" points="806.3,82 710.8,41.2 679,313.2 	"/>
	
		<linearGradient id="SVGID_27_" gradientUnits="userSpaceOnUse" x1="90.3744" y1="832.0269" x2="94.1216" y2="828.2797" gradientTransform="matrix(49 0 0 -68 -3748 56689)">
		<stop  offset="0" style="stop-color:#12596F"/>
		<stop  offset="1" style="stop-color:#15677C"/>
	</linearGradient>
	<polygon class="st26" points="901.7,309.8 806.3,82 679,313.2 	"/>
	
		<linearGradient id="SVGID_28_" gradientUnits="userSpaceOnUse" x1="90.4234" y1="829.6013" x2="94.2123" y2="825.8123" gradientTransform="matrix(10 0 0 -72 -594 60139)">
		<stop  offset="0" style="stop-color:#1795A7"/>
		<stop  offset="1" style="stop-color:#1695A9"/>
	</linearGradient>
	<polygon class="st27" points="301.7,476.4 324.5,714.4 347.2,469.6 	"/>
	
		<linearGradient id="SVGID_29_" gradientUnits="userSpaceOnUse" x1="84.1912" y1="828.6602" x2="88.381" y2="824.4705" gradientTransform="matrix(67 0 0 -72 -5320 60139)">
		<stop  offset="0" style="stop-color:#1795A8"/>
		<stop  offset="1" style="stop-color:#1593A7"/>
	</linearGradient>
	<polygon class="st28" points="347.2,469.6 324.5,714.4 629,571.6 	"/>
	
		<linearGradient id="SVGID_30_" gradientUnits="userSpaceOnUse" x1="99.2833" y1="821.167" x2="106.2998" y2="814.1505" gradientTransform="matrix(36 0 0 -36 -2614 30200)">
		<stop  offset="0" style="stop-color:#1694A6"/>
		<stop  offset="1" style="stop-color:#1691A5"/>
	</linearGradient>
	<polygon class="st29" points="1092.6,758.6 1077.3,766.9 1081.9,766.9 	"/>
	
		<linearGradient id="SVGID_31_" gradientUnits="userSpaceOnUse" x1="81.4373" y1="828.5882" x2="85.2744" y2="824.7512" gradientTransform="matrix(47 0 0 -37 -3714 30886)">
		<stop  offset="0" style="stop-color:#158EA2"/>
		<stop  offset="1" style="stop-color:#158EA2"/>
	</linearGradient>
	<polygon class="st30" points="292.7,292.8 79,255.4 210.8,381.2 	"/>
	
		<linearGradient id="SVGID_32_" gradientUnits="userSpaceOnUse" x1="83.1207" y1="823.9063" x2="86.7644" y2="820.2625" gradientTransform="matrix(24 0 0 -26 -1776 21723)">
		<stop  offset="0" style="stop-color:#1791A5"/>
		<stop  offset="1" style="stop-color:#148B9F"/>
	</linearGradient>
	<polygon class="st31" points="292.7,292.8 210.8,381.2 319.9,377.8 	"/>
	
		<linearGradient id="SVGID_33_" gradientUnits="userSpaceOnUse" x1="84.5703" y1="824.0844" x2="88.8939" y2="819.7607" gradientTransform="matrix(44 0 0 -25 -3418 20889)">
		<stop  offset="0" style="stop-color:#118599"/>
		<stop  offset="1" style="stop-color:#118398"/>
	</linearGradient>
	<polygon class="st32" points="492.6,313.2 292.7,292.8 319.9,377.8 	"/>
	
		<linearGradient id="SVGID_34_" gradientUnits="userSpaceOnUse" x1="84.2079" y1="822.6471" x2="88.0722" y2="818.7828" gradientTransform="matrix(44 0 0 -20 -3418 16705)">
		<stop  offset="0" style="stop-color:#117F94"/>
		<stop  offset="1" style="stop-color:#118196"/>
	</linearGradient>
	<polygon class="st33" points="356.3,245.2 292.7,292.8 492.6,313.2 	"/>
	
		<linearGradient id="SVGID_35_" gradientUnits="userSpaceOnUse" x1="84.6596" y1="822.2201" x2="88.7318" y2="818.1478" gradientTransform="matrix(44 0 0 -27 -3412 22582)">
		<stop  offset="0" style="stop-color:#2590A1"/>
		<stop  offset="1" style="stop-color:#2B94A5"/>
	</linearGradient>
	<polygon class="st34" points="319.9,377.8 347.2,469.6 519.9,442.4 	"/>
	
		<linearGradient id="SVGID_36_" gradientUnits="userSpaceOnUse" x1="85.1819" y1="827.6888" x2="89.3455" y2="823.5252" gradientTransform="matrix(44 0 0 -38 -3412 31737)">
		<stop  offset="0" style="stop-color:#208B9D"/>
		<stop  offset="1" style="stop-color:#268B9D"/>
	</linearGradient>
	<polygon class="st35" points="519.9,442.4 492.6,313.2 319.9,377.8 	"/>
	
		<linearGradient id="SVGID_37_" gradientUnits="userSpaceOnUse" x1="85.0823" y1="825.1264" x2="89.1224" y2="821.0863" gradientTransform="matrix(62 0 0 -38 -4900 31775)">
		<stop  offset="0" style="stop-color:#168FA3"/>
		<stop  offset="1" style="stop-color:#1F8EA1"/>
	</linearGradient>
	<polygon class="st36" points="347.2,469.6 629,571.6 519.9,442.4 	"/>
	
		<linearGradient id="SVGID_38_" gradientUnits="userSpaceOnUse" x1="88.6879" y1="827.3941" x2="92.653" y2="823.4291" gradientTransform="matrix(41 0 0 -38 -3125 31737)">
		<stop  offset="0" style="stop-color:#127F94"/>
		<stop  offset="1" style="stop-color:#1E8093"/>
	</linearGradient>
	<polygon class="st37" points="679,313.2 492.6,313.2 519.9,442.4 	"/>
	
		<linearGradient id="SVGID_39_" gradientUnits="userSpaceOnUse" x1="90.2863" y1="831.3477" x2="94.3487" y2="827.2853" gradientTransform="matrix(35 0 0 -76 -2621 63429)">
		<stop  offset="0" style="stop-color:#13889B"/>
		<stop  offset="1" style="stop-color:#1D8295"/>
	</linearGradient>
	<polygon class="st38" points="519.9,442.4 629,571.6 679,313.2 	"/>
	
		<linearGradient id="SVGID_40_" gradientUnits="userSpaceOnUse" x1="84.1811" y1="823.2646" x2="88.135" y2="819.3107" gradientTransform="matrix(82 0 0 -42 -6565 35149)">
		<stop  offset="0" style="stop-color:#1594AA"/>
		<stop  offset="1" style="stop-color:#168EA1"/>
	</linearGradient>
	<polygon class="st39" points="324.5,714.4 697.2,680.4 629,571.6 	"/>
	
		<linearGradient id="SVGID_41_" gradientUnits="userSpaceOnUse" x1="84.9104" y1="825.108" x2="89.1951" y2="820.8234" gradientTransform="matrix(82 0 0 -53 -6565 44355)">
		<stop  offset="0" style="stop-color:#1798AF"/>
		<stop  offset="1" style="stop-color:#1795AB"/>
	</linearGradient>
	<polygon class="st40" points="324.5,714.4 455,766.9 692.8,766.9 697.2,680.4 	"/>
	
		<linearGradient id="SVGID_42_" gradientUnits="userSpaceOnUse" x1="91.4681" y1="824.5238" x2="95.7258" y2="820.2661" gradientTransform="matrix(46 0 0 -53 -3497 44355)">
		<stop  offset="0" style="stop-color:#1695AB"/>
		<stop  offset="1" style="stop-color:#1794A7"/>
	</linearGradient>
	<polygon class="st41" points="697.2,680.4 692.8,766.9 848.2,766.9 897.2,738.2 	"/>
	
		<linearGradient id="SVGID_43_" gradientUnits="userSpaceOnUse" x1="86.8384" y1="824.3974" x2="90.7913" y2="820.4445" gradientTransform="matrix(30 0 0 -22 -2242 18371)">
		<stop  offset="0" style="stop-color:#117E93"/>
		<stop  offset="1" style="stop-color:#127E93"/>
	</linearGradient>
	<polygon class="st42" points="492.6,313.2 365.4,238.4 356.3,245.2 	"/>
	
		<linearGradient id="SVGID_44_" gradientUnits="userSpaceOnUse" x1="84.8005" y1="833.8051" x2="88.8563" y2="829.7492" gradientTransform="matrix(76 0 0 -80 -6058 66685)">
		<stop  offset="0" style="stop-color:#16768B"/>
		<stop  offset="1" style="stop-color:#156B82"/>
	</linearGradient>
	<polygon class="st43" points="710.8,41.2 365.4,238.4 492.6,313.2 	"/>
	
		<linearGradient id="SVGID_45_" gradientUnits="userSpaceOnUse" x1="84.6674" y1="833.5009" x2="88.979" y2="829.1893" gradientTransform="matrix(76 0 0 -72 -6058 59999)">
		<stop  offset="0" style="stop-color:#16748A"/>
		<stop  offset="1" style="stop-color:#145D75"/>
	</linearGradient>
	<polygon class="st44" points="710.8,41.2 540.1,2.3 496.9,2.3 365.4,238.4 	"/>
	
		<linearGradient id="SVGID_46_" gradientUnits="userSpaceOnUse" x1="79.0431" y1="822.1448" x2="83.0023" y2="818.1857" gradientTransform="matrix(65 0 0 -44 -5255 36851)">
		<stop  offset="0" style="stop-color:#158AB1"/>
		<stop  offset="1" style="stop-color:#1782AD"/>
	</linearGradient>
	<polygon class="st45" points="3.2,766.9 29.1,766.9 3.2,753.1 	"/>
	
		<linearGradient id="SVGID_47_" gradientUnits="userSpaceOnUse" x1="94.6714" y1="830.8481" x2="98.6441" y2="826.8755" gradientTransform="matrix(41 0 0 -29 -3056 24163)">
		<stop  offset="0" style="stop-color:#12556D"/>
		<stop  offset="1" style="stop-color:#12556D"/>
	</linearGradient>
	<polygon class="st46" points="888.1,85.4 806.3,82 992.6,180.6 	"/>
	
		<linearGradient id="SVGID_48_" gradientUnits="userSpaceOnUse" x1="102.7095" y1="831.8475" x2="106.655" y2="827.902" gradientTransform="matrix(28 0 0 -31 -1959 25829)">
		<stop  offset="0" style="stop-color:#12556D"/>
		<stop  offset="1" style="stop-color:#13536B"/>
	</linearGradient>
	<polygon class="st47" points="992.6,180.6 1015.4,75.2 888.1,85.4 	"/>
	
		<linearGradient id="SVGID_49_" gradientUnits="userSpaceOnUse" x1="86.7418" y1="833.4976" x2="90.771" y2="829.4684" gradientTransform="matrix(62 0 0 -23 -4866 19124)">
		<stop  offset="0" style="stop-color:#12576F"/>
		<stop  offset="1" style="stop-color:#105069"/>
	</linearGradient>
	<polygon class="st48" points="747,2.3 540.1,2.3 710.8,41.2 	"/>
	
		<linearGradient id="SVGID_50_" gradientUnits="userSpaceOnUse" x1="101.1604" y1="833.7953" x2="105.4133" y2="829.5425" gradientTransform="matrix(21 0 0 -35 -1417 29132)">
		<stop  offset="0" style="stop-color:#11536C"/>
		<stop  offset="1" style="stop-color:#104F67"/>
	</linearGradient>
	<polygon class="st49" points="806.3,82 791.1,2.3 747,2.3 710.8,41.2 	"/>
	
		<linearGradient id="SVGID_51_" gradientUnits="userSpaceOnUse" x1="82.1034" y1="823.3378" x2="86.4315" y2="819.0096" gradientTransform="matrix(39 0 0 -47 -3035 39350)">
		<stop  offset="0" style="stop-color:#108FB2"/>
		<stop  offset="1" style="stop-color:#0F95B1"/>
	</linearGradient>
	<polygon class="st50" points="147.2,677 154.9,766.9 254.3,766.9 324.5,714.4 	"/>
	
		<linearGradient id="SVGID_52_" gradientUnits="userSpaceOnUse" x1="81.452" y1="829.2139" x2="85.8418" y2="824.8241" gradientTransform="matrix(39 0 0 -70 -3035 58473)">
		<stop  offset="0" style="stop-color:#1691A5"/>
		<stop  offset="1" style="stop-color:#1393AC"/>
	</linearGradient>
	<polygon class="st51" points="147.2,677 324.5,714.4 301.7,476.4 	"/>
	
		<linearGradient id="SVGID_53_" gradientUnits="userSpaceOnUse" x1="80.0346" y1="823.8914" x2="84.0127" y2="819.9133" gradientTransform="matrix(62 0 0 -47 -5003 39350)">
		<stop  offset="0" style="stop-color:#0E8DB0"/>
		<stop  offset="1" style="stop-color:#108EB0"/>
	</linearGradient>
	<polygon class="st52" points="3.2,682.5 3.2,753.1 29.1,766.9 154.9,766.9 147.2,677 	"/>
	
		<linearGradient id="SVGID_54_" gradientUnits="userSpaceOnUse" x1="90.9389" y1="818.6498" x2="94.9996" y2="814.5892" gradientTransform="matrix(81 0 0 -36 -6348 30200)">
		<stop  offset="0" style="stop-color:#1794A8"/>
		<stop  offset="1" style="stop-color:#168FA2"/>
	</linearGradient>
	<polygon class="st53" points="1081.9,766.9 1126.6,766.9 1092.6,758.6 	"/>
	
		<linearGradient id="SVGID_55_" gradientUnits="userSpaceOnUse" x1="98.0169" y1="802.362" x2="102.3345" y2="798.0444" gradientTransform="matrix(46 0 0 -18 -3408 15185)">
		<stop  offset="0" style="stop-color:#158B9F"/>
		<stop  offset="1" style="stop-color:#13889C"/>
	</linearGradient>
	<polygon class="st54" points="1092.6,758.6 1126.6,766.9 1206.5,766.9 1165.4,748.4 	"/>
	
		<linearGradient id="SVGID_56_" gradientUnits="userSpaceOnUse" x1="78.6033" y1="822.7921" x2="82.5788" y2="818.8166" gradientTransform="matrix(59 0 0 -39 -4754 32642)">
		<stop  offset="0" style="stop-color:#0E90B2"/>
		<stop  offset="1" style="stop-color:#0E92AE"/>
	</linearGradient>
	<polygon class="st55" points="3.2,606.5 3.2,682.5 147.2,677 	"/>
	
		<linearGradient id="SVGID_57_" gradientUnits="userSpaceOnUse" x1="94.7502" y1="831.2643" x2="98.563" y2="827.4515" gradientTransform="matrix(55 0 0 -50 -4177 41706)">
		<stop  offset="0" style="stop-color:#12576E"/>
		<stop  offset="1" style="stop-color:#11586F"/>
	</linearGradient>
	<polygon class="st56" points="1133.5,350.6 1242.6,214.6 992.6,180.6 	"/>
	
		<linearGradient id="SVGID_58_" gradientUnits="userSpaceOnUse" x1="93.9461" y1="830.3047" x2="98.2051" y2="826.0457" gradientTransform="matrix(55 0 0 -30 -4177 25006)">
		<stop  offset="0" style="stop-color:#11536B"/>
		<stop  offset="1" style="stop-color:#0E4C64"/>
	</linearGradient>
	<polygon class="st57" points="1242.6,214.6 1169.9,112.6 992.6,180.6 	"/>
	
		<linearGradient id="SVGID_59_" gradientUnits="userSpaceOnUse" x1="94.4658" y1="828.4766" x2="98.2236" y2="824.7188" gradientTransform="matrix(61 0 0 -40 -4644 33376)">
		<stop  offset="0" style="stop-color:#135D75"/>
		<stop  offset="1" style="stop-color:#11536B"/>
	</linearGradient>
	<polygon class="st58" points="1133.5,350.6 1366,347.8 1366,311.9 1242.6,214.6 	"/>
	
		<linearGradient id="SVGID_60_" gradientUnits="userSpaceOnUse" x1="104.8352" y1="831.8096" x2="108.92" y2="827.7248" gradientTransform="matrix(37 0 0 -58 -2628 48369)">
		<stop  offset="0" style="stop-color:#0E4C64"/>
		<stop  offset="1" style="stop-color:#0F4C64"/>
	</linearGradient>
	<polygon class="st59" points="1242.6,214.6 1366,311.9 1366,232.9 1333.5,150 	"/>
	
		<linearGradient id="SVGID_61_" gradientUnits="userSpaceOnUse" x1="83.1365" y1="825.0989" x2="87.6818" y2="820.5535" gradientTransform="matrix(36 0 0 -52 -2783 43531)">
		<stop  offset="0" style="stop-color:#1188AC"/>
		<stop  offset="1" style="stop-color:#128BAB"/>
	</linearGradient>
	<polygon class="st60" points="254.3,766.9 297.5,766.9 324.5,714.4 	"/>
	
		<linearGradient id="SVGID_62_" gradientUnits="userSpaceOnUse" x1="83.3926" y1="823.5463" x2="87.3558" y2="819.5831" gradientTransform="matrix(100 0 0 -52 -8079 43531)">
		<stop  offset="0" style="stop-color:#0F92AD"/>
		<stop  offset="1" style="stop-color:#128EAD"/>
	</linearGradient>
	<polygon class="st61" points="297.5,766.9 455,766.9 324.5,714.4 	"/>
	
		<linearGradient id="SVGID_63_" gradientUnits="userSpaceOnUse" x1="77.8283" y1="818.3652" x2="81.8409" y2="814.3525" gradientTransform="matrix(20 0 0 -23 -1472 19263)">
		<stop  offset="0" style="stop-color:#1797AA"/>
		<stop  offset="1" style="stop-color:#1696A9"/>
	</linearGradient>
	<polygon class="st62" points="174.5,469.6 129,435.6 83.6,513.8 	"/>
	
		<linearGradient id="SVGID_64_" gradientUnits="userSpaceOnUse" x1="78.676" y1="828.8057" x2="82.6152" y2="824.8665" gradientTransform="matrix(20 0 0 -61 -1472 50965)">
		<stop  offset="0" style="stop-color:#1896AB"/>
		<stop  offset="1" style="stop-color:#1495AC"/>
	</linearGradient>
	<polygon class="st63" points="83.6,513.8 147.2,677 174.5,469.6 	"/>
	
		<linearGradient id="SVGID_65_" gradientUnits="userSpaceOnUse" x1="79.5728" y1="822.6591" x2="83.6496" y2="818.5823" gradientTransform="matrix(18 0 0 -26 -1296 21749)">
		<stop  offset="0" style="stop-color:#1696A8"/>
		<stop  offset="1" style="stop-color:#1794A7"/>
	</linearGradient>
	<polygon class="st64" points="210.8,381.2 129,435.6 174.5,469.6 	"/>
	
		<linearGradient id="SVGID_66_" gradientUnits="userSpaceOnUse" x1="81.6506" y1="828.0477" x2="86.1521" y2="823.5461" gradientTransform="matrix(34 0 0 -61 -2620 50965)">
		<stop  offset="0" style="stop-color:#1294AB"/>
		<stop  offset="1" style="stop-color:#1694A6"/>
	</linearGradient>
	<polygon class="st65" points="174.5,469.6 147.2,677 301.7,476.4 	"/>
	
		<linearGradient id="SVGID_67_" gradientUnits="userSpaceOnUse" x1="81.4334" y1="822.1462" x2="85.3107" y2="818.269" gradientTransform="matrix(28 0 0 -28 -2116 23417)">
		<stop  offset="0" style="stop-color:#1894A7"/>
		<stop  offset="1" style="stop-color:#1795A7"/>
	</linearGradient>
	<polygon class="st66" points="174.5,469.6 301.7,476.4 210.8,381.2 	"/>
	
		<linearGradient id="SVGID_68_" gradientUnits="userSpaceOnUse" x1="141.4161" y1="822.2089" x2="145.3691" y2="818.2559" gradientTransform="matrix(15 0 0 -28 -783 23430)">
		<stop  offset="0" style="stop-color:#16657C"/>
		<stop  offset="1" style="stop-color:#156279"/>
	</linearGradient>
	<polygon class="st67" points="1366,480.8 1366,425.4 1329,425.4 	"/>
	
		<linearGradient id="SVGID_69_" gradientUnits="userSpaceOnUse" x1="129.792" y1="821.0659" x2="134.3373" y2="816.5205" gradientTransform="matrix(18 0 0 -23 -1032 19237)">
		<stop  offset="0" style="stop-color:#156179"/>
		<stop  offset="1" style="stop-color:#135C74"/>
	</linearGradient>
	<polygon class="st68" points="1366,425.4 1366,390 1329,425.4 	"/>
	
		<linearGradient id="SVGID_70_" gradientUnits="userSpaceOnUse" x1="104.1496" y1="799.3539" x2="107.5541" y2="795.9494" gradientTransform="matrix(40 0 0 -14 -2861 11808)">
		<stop  offset="0" style="stop-color:#13778C"/>
		<stop  offset="1" style="stop-color:#167388"/>
	</linearGradient>
	<polygon class="st69" points="1315.4,649.8 1366,651.7 1366,609.3 1365.4,609 	"/>
	
		<linearGradient id="SVGID_71_" gradientUnits="userSpaceOnUse" x1="112.7907" y1="822.5453" x2="116.1908" y2="819.1453" gradientTransform="matrix(29 0 0 -40 -1937 33466)">
		<stop  offset="0" style="stop-color:#177186"/>
		<stop  offset="1" style="stop-color:#176B80"/>
	</linearGradient>
	<polygon class="st70" points="1366,609.3 1366,606.9 1365.4,609 	"/>
	
		<linearGradient id="SVGID_72_" gradientUnits="userSpaceOnUse" x1="77.2002" y1="825.8291" x2="81.1789" y2="821.8504" gradientTransform="matrix(21 0 0 -48 -1562 40136)">
		<stop  offset="0" style="stop-color:#1896AB"/>
		<stop  offset="1" style="stop-color:#1595AD"/>
	</linearGradient>
	<polygon class="st71" points="51.7,517.2 147.2,677 83.6,513.8 	"/>
	
		<linearGradient id="SVGID_73_" gradientUnits="userSpaceOnUse" x1="79.3012" y1="825.805" x2="83.1403" y2="821.9659" gradientTransform="matrix(55 0 0 -47 -4418 39303)">
		<stop  offset="0" style="stop-color:#1292AB"/>
		<stop  offset="1" style="stop-color:#1496AE"/>
	</linearGradient>
	<polygon class="st72" points="51.7,517.2 3.2,529 3.2,606.5 147.2,677 	"/>
	
		<linearGradient id="SVGID_74_" gradientUnits="userSpaceOnUse" x1="76.849" y1="798.6266" x2="82.3" y2="793.1757" gradientTransform="matrix(34 0 0 -11 -2675 9279)">
		<stop  offset="0" style="stop-color:#128EA6"/>
		<stop  offset="1" style="stop-color:#1592A8"/>
	</linearGradient>
	<polygon class="st73" points="3.2,522.4 3.2,529 51.7,517.2 	"/>
	
		<linearGradient id="SVGID_75_" gradientUnits="userSpaceOnUse" x1="76.0685" y1="812.2581" x2="79.8009" y2="808.5256" gradientTransform="matrix(28 0 0 -17 -2171 14270)">
		<stop  offset="0" style="stop-color:#1591A7"/>
		<stop  offset="1" style="stop-color:#1795A9"/>
	</linearGradient>
	<polygon class="st74" points="33.6,473 3.2,489.1 3.2,522.4 51.7,517.2 	"/>
	
		<linearGradient id="SVGID_76_" gradientUnits="userSpaceOnUse" x1="69.8756" y1="804.6054" x2="73.8712" y2="800.6099" gradientTransform="matrix(11 0 0 -13 -736 10934)">
		<stop  offset="0" style="stop-color:#1796AA"/>
		<stop  offset="1" style="stop-color:#1896AB"/>
	</linearGradient>
	<polygon class="st75" points="33.6,473 51.7,517.2 83.6,513.8 	"/>
	
		<linearGradient id="SVGID_77_" gradientUnits="userSpaceOnUse" x1="94.1262" y1="833.9122" x2="98.2027" y2="829.8356" gradientTransform="matrix(57 0 0 -46 -4337 38304)">
		<stop  offset="0" style="stop-color:#11425C"/>
		<stop  offset="1" style="stop-color:#0E435C"/>
	</linearGradient>
	<polygon class="st76" points="1279,92.2 1107.8,2.3 1064.1,2.3 1169.9,112.6 	"/>
	
		<linearGradient id="SVGID_78_" gradientUnits="userSpaceOnUse" x1="114.9065" y1="831.9198" x2="118.8156" y2="828.0108" gradientTransform="matrix(24 0 0 -36 -1565 30004)">
		<stop  offset="0" style="stop-color:#0D465E"/>
		<stop  offset="1" style="stop-color:#0E465F"/>
	</linearGradient>
	<polygon class="st77" points="1279,92.2 1169.9,112.6 1242.6,214.6 	"/>
	
		<linearGradient id="SVGID_79_" gradientUnits="userSpaceOnUse" x1="122.9672" y1="830.6668" x2="127.0081" y2="826.6259" gradientTransform="matrix(20 0 0 -36 -1217 30004)">
		<stop  offset="0" style="stop-color:#0D4961"/>
		<stop  offset="1" style="stop-color:#0E435C"/>
	</linearGradient>
	<polygon class="st78" points="1333.5,150 1279,92.2 1242.6,214.6 	"/>
	
		<linearGradient id="SVGID_80_" gradientUnits="userSpaceOnUse" x1="102.2063" y1="827.3494" x2="105.8701" y2="823.6857" gradientTransform="matrix(43 0 0 -17 -3118 14158)">
		<stop  offset="0" style="stop-color:#10425C"/>
		<stop  offset="1" style="stop-color:#113F59"/>
	</linearGradient>
	<polygon class="st79" points="1333.5,150 1366,137.5 1366,93.7 1279,92.2 	"/>
	
		<linearGradient id="SVGID_81_" gradientUnits="userSpaceOnUse" x1="107.5255" y1="805.7332" x2="111.4672" y2="801.7915" gradientTransform="matrix(30 0 0 -19 -2064 16000)">
		<stop  offset="0" style="stop-color:#108498"/>
		<stop  offset="1" style="stop-color:#0D7F93"/>
	</linearGradient>
	<polygon class="st80" points="1165.4,748.4 1301.7,724.6 1224.4,683.8 	"/>
	
		<linearGradient id="SVGID_82_" gradientUnits="userSpaceOnUse" x1="108.4118" y1="812.6851" x2="112.7527" y2="808.3442" gradientTransform="matrix(30 0 0 -25 -2064 21016)">
		<stop  offset="0" style="stop-color:#118699"/>
		<stop  offset="1" style="stop-color:#0F8397"/>
	</linearGradient>
	<polygon class="st81" points="1165.4,748.4 1206.5,766.9 1301.7,766.9 1301.7,724.6 	"/>
	
		<linearGradient id="SVGID_83_" gradientUnits="userSpaceOnUse" x1="122.8637" y1="811.9165" x2="126.9614" y2="807.8188" gradientTransform="matrix(20 0 0 -22 -1221 18492)">
		<stop  offset="0" style="stop-color:#0E7E93"/>
		<stop  offset="1" style="stop-color:#0E7C91"/>
	</linearGradient>
	<polygon class="st82" points="1301.7,724.6 1315.4,649.8 1224.4,683.8 	"/>
	
		<linearGradient id="SVGID_84_" gradientUnits="userSpaceOnUse" x1="99.2282" y1="816.1804" x2="103.0963" y2="812.3123" gradientTransform="matrix(51 0 0 -31 -3777 26014)">
		<stop  offset="0" style="stop-color:#118599"/>
		<stop  offset="1" style="stop-color:#107D92"/>
	</linearGradient>
	<polygon class="st83" points="1301.7,766.9 1366,766.9 1366,719 1301.7,724.6 	"/>
	
		<linearGradient id="SVGID_85_" gradientUnits="userSpaceOnUse" x1="102.1992" y1="810.481" x2="105.9084" y2="806.7719" gradientTransform="matrix(43 0 0 -22 -3113 18492)">
		<stop  offset="0" style="stop-color:#117A90"/>
		<stop  offset="1" style="stop-color:#11788D"/>
	</linearGradient>
	<polygon class="st84" points="1301.7,724.6 1366,702.3 1366,651.7 1315.4,649.8 	"/>
	
		<linearGradient id="SVGID_86_" gradientUnits="userSpaceOnUse" x1="98.2906" y1="807.5502" x2="102.2694" y2="803.5715" gradientTransform="matrix(51 0 0 -20 -3777 16826)">
		<stop  offset="0" style="stop-color:#15768B"/>
		<stop  offset="1" style="stop-color:#117B90"/>
	</linearGradient>
	<polygon class="st85" points="1366,719 1366,702.3 1301.7,724.6 	"/>
	
		<linearGradient id="SVGID_87_" gradientUnits="userSpaceOnUse" x1="80.7267" y1="828.1441" x2="84.7897" y2="824.0811" gradientTransform="matrix(47 0 0 -30 -3714 25029)">
		<stop  offset="0" style="stop-color:#11869A"/>
		<stop  offset="1" style="stop-color:#108296"/>
	</linearGradient>
	<polygon class="st86" points="201.7,190.8 79,255.4 292.7,292.8 	"/>
	
		<linearGradient id="SVGID_88_" gradientUnits="userSpaceOnUse" x1="82.723" y1="834.0469" x2="87.2684" y2="829.5016" gradientTransform="matrix(66 0 0 -72 -5264 59985)">
		<stop  offset="0" style="stop-color:#146177"/>
		<stop  offset="1" style="stop-color:#136980"/>
	</linearGradient>
	<polygon class="st87" points="488.5,2.3 240.2,2.3 201.7,190.8 	"/>
	
		<linearGradient id="SVGID_89_" gradientUnits="userSpaceOnUse" x1="83.141" y1="828.4407" x2="87.1446" y2="824.4371" gradientTransform="matrix(34 0 0 -30 -2608 25029)">
		<stop  offset="0" style="stop-color:#108398"/>
		<stop  offset="1" style="stop-color:#117E93"/>
	</linearGradient>
	<polygon class="st88" points="356.3,245.2 201.7,190.8 292.7,292.8 	"/>
	
		<linearGradient id="SVGID_90_" gradientUnits="userSpaceOnUse" x1="83.0522" y1="823.0287" x2="87.0085" y2="819.0724" gradientTransform="matrix(36 0 0 -16 -2774 13353)">
		<stop  offset="0" style="stop-color:#127E93"/>
		<stop  offset="1" style="stop-color:#117D92"/>
	</linearGradient>
	<polygon class="st89" points="365.4,238.4 201.7,190.8 356.3,245.2 	"/>
	
		<linearGradient id="SVGID_91_" gradientUnits="userSpaceOnUse" x1="82.8771" y1="834.151" x2="87.1215" y2="829.9067" gradientTransform="matrix(66 0 0 -72 -5264 59999)">
		<stop  offset="0" style="stop-color:#16788D"/>
		<stop  offset="1" style="stop-color:#146D83"/>
	</linearGradient>
	<polygon class="st90" points="365.4,238.4 496.9,2.3 488.5,2.3 201.7,190.8 	"/>
	
		<linearGradient id="SVGID_92_" gradientUnits="userSpaceOnUse" x1="79.6906" y1="829.9532" x2="83.7409" y2="825.9029" gradientTransform="matrix(51 0 0 -33 -4070 27517)">
		<stop  offset="0" style="stop-color:#0E8095"/>
		<stop  offset="1" style="stop-color:#118499"/>
	</linearGradient>
	<polygon class="st91" points="201.7,190.8 3.2,150.1 3.2,177.4 79,255.4 	"/>
	
		<linearGradient id="SVGID_93_" gradientUnits="userSpaceOnUse" x1="79.9374" y1="834.4634" x2="84.1492" y2="830.2517" gradientTransform="matrix(62 0 0 -72 -4983 59985)">
		<stop  offset="0" style="stop-color:#0F7488"/>
		<stop  offset="1" style="stop-color:#116C81"/>
	</linearGradient>
	<polygon class="st92" points="240.2,2.3 171.3,2.3 3.2,119.9 3.2,150.1 201.7,190.8 	"/>
	
		<linearGradient id="SVGID_94_" gradientUnits="userSpaceOnUse" x1="86.7585" y1="824.6863" x2="90.833" y2="820.6118" gradientTransform="matrix(95 0 0 -43 -7577 35972)">
		<stop  offset="0" style="stop-color:#168DA0"/>
		<stop  offset="1" style="stop-color:#16899D"/>
	</linearGradient>
	<polygon class="st93" points="629,571.6 697.2,680.4 1060.8,534.2 	"/>
	
		<linearGradient id="SVGID_95_" gradientUnits="userSpaceOnUse" x1="86.4997" y1="830.1625" x2="90.244" y2="826.4182" gradientTransform="matrix(95 0 0 -77 -7577 64262)">
		<stop  offset="0" style="stop-color:#148497"/>
		<stop  offset="1" style="stop-color:#15778D"/>
	</linearGradient>
	<polygon class="st94" points="629,571.6 1060.8,534.2 901.7,309.8 	"/>
	
		<linearGradient id="SVGID_96_" gradientUnits="userSpaceOnUse" x1="87.9336" y1="827.7277" x2="92.0896" y2="823.5717" gradientTransform="matrix(80 0 0 -60 -6317 50150)">
		<stop  offset="0" style="stop-color:#168EA1"/>
		<stop  offset="1" style="stop-color:#178EA3"/>
	</linearGradient>
	<polygon class="st95" points="697.2,680.4 897.2,738.2 1060.8,534.2 	"/>
	
		<linearGradient id="SVGID_97_" gradientUnits="userSpaceOnUse" x1="95.3063" y1="827.9531" x2="99.4811" y2="823.7783" gradientTransform="matrix(43 0 0 -66 -3202 55154)">
		<stop  offset="0" style="stop-color:#1793A8"/>
		<stop  offset="1" style="stop-color:#15889C"/>
	</linearGradient>
	<polygon class="st96" points="897.2,738.2 1092.6,758.6 1060.8,534.2 	"/>
	
		<linearGradient id="SVGID_98_" gradientUnits="userSpaceOnUse" x1="94.3769" y1="830.884" x2="98.243" y2="827.0179" gradientTransform="matrix(51 0 0 -66 -3865 55088)">
		<stop  offset="0" style="stop-color:#267287"/>
		<stop  offset="1" style="stop-color:#1F7389"/>
	</linearGradient>
	<polygon class="st97" points="1060.8,534.2 1133.5,350.6 901.7,309.8 	"/>
	
		<linearGradient id="SVGID_99_" gradientUnits="userSpaceOnUse" x1="101.2132" y1="827.513" x2="105.3004" y2="823.4258" gradientTransform="matrix(36 0 0 -66 -2585 55154)">
		<stop  offset="0" style="stop-color:#118498"/>
		<stop  offset="1" style="stop-color:#0F7D92"/>
	</linearGradient>
	<polygon class="st98" points="1060.8,534.2 1092.6,758.6 1224.4,683.8 	"/>
	
		<linearGradient id="SVGID_100_" gradientUnits="userSpaceOnUse" x1="94.1451" y1="828.4283" x2="98.2798" y2="824.2937" gradientTransform="matrix(59 0 0 -54 -4494 45092)">
		<stop  offset="0" style="stop-color:#156279"/>
		<stop  offset="1" style="stop-color:#166C83"/>
	</linearGradient>
	<polygon class="st99" points="1329,425.4 1133.5,350.6 1060.8,534.2 	"/>
	
		<linearGradient id="SVGID_101_" gradientUnits="userSpaceOnUse" x1="95.1067" y1="824.7186" x2="99.1528" y2="820.6724" gradientTransform="matrix(56 0 0 -44 -4245 36806)">
		<stop  offset="0" style="stop-color:#107F94"/>
		<stop  offset="1" style="stop-color:#137D93"/>
	</linearGradient>
	<polygon class="st100" points="1315.4,649.8 1060.8,534.2 1224.4,683.8 	"/>
	
		<linearGradient id="SVGID_102_" gradientUnits="userSpaceOnUse" x1="93.4045" y1="822.1092" x2="97.3259" y2="818.1877" gradientTransform="matrix(67 0 0 -34 -5158 28466)">
		<stop  offset="0" style="stop-color:#137B90"/>
		<stop  offset="1" style="stop-color:#15798F"/>
	</linearGradient>
	<polygon class="st101" points="1365.4,609 1060.8,534.2 1315.4,649.8 	"/>
	
		<linearGradient id="SVGID_103_" gradientUnits="userSpaceOnUse" x1="92.2428" y1="823.0482" x2="96.0456" y2="819.2454" gradientTransform="matrix(73 0 0 -32 -5656 26766)">
		<stop  offset="0" style="stop-color:#186980"/>
		<stop  offset="1" style="stop-color:#176F85"/>
	</linearGradient>
	<polygon class="st102" points="1060.8,534.2 1366,521.7 1366,480.8 1329,425.4 	"/>
	
		<linearGradient id="SVGID_104_" gradientUnits="userSpaceOnUse" x1="92.8692" y1="819.0027" x2="96.8651" y2="815.0067" gradientTransform="matrix(73 0 0 -26 -5656 21790)">
		<stop  offset="0" style="stop-color:#177489"/>
		<stop  offset="1" style="stop-color:#167187"/>
	</linearGradient>
	<polygon class="st103" points="1365.4,609 1366,606.9 1366,521.7 1060.8,534.2 	"/>
	
		<linearGradient id="SVGID_105_" gradientUnits="userSpaceOnUse" x1="86.8438" y1="833.426" x2="90.5503" y2="829.7195" gradientTransform="matrix(156 0 0 -40 -12554 33300)">
		<stop  offset="0" style="stop-color:#113C56"/>
		<stop  offset="1" style="stop-color:#0D334F"/>
	</linearGradient>
	<polygon class="st104" points="1366,67.9 1366,2.3 1107.8,2.3 1279,92.2 	"/>
	
		<linearGradient id="SVGID_106_" gradientUnits="userSpaceOnUse" x1="89.5623" y1="832.6339" x2="94.0422" y2="828.154" gradientTransform="matrix(99 0 0 -38 -7766 31635)">
		<stop  offset="0" style="stop-color:#0F3B56"/>
		<stop  offset="1" style="stop-color:#0F324E"/>
	</linearGradient>
	<polygon class="st105" points="1366,93.7 1366,67.9 1279,92.2 	"/>
	
		<linearGradient id="SVGID_107_" gradientUnits="userSpaceOnUse" x1="100.466" y1="833.4568" x2="104.6957" y2="829.2271" gradientTransform="matrix(25 0 0 -35 -1733 29132)">
		<stop  offset="0" style="stop-color:#0F4C65"/>
		<stop  offset="1" style="stop-color:#115169"/>
	</linearGradient>
	<polygon class="st106" points="897.2,44.6 838.3,2.3 791.1,2.3 806.3,82 	"/>
	
		<linearGradient id="SVGID_108_" gradientUnits="userSpaceOnUse" x1="91.5575" y1="833.4725" x2="95.3498" y2="829.6802" gradientTransform="matrix(52 0 0 -26 -3974 21624)">
		<stop  offset="0" style="stop-color:#104B64"/>
		<stop  offset="1" style="stop-color:#124A64"/>
	</linearGradient>
	<polygon class="st107" points="955.9,2.3 838.3,2.3 897.2,44.6 	"/>
	
		<linearGradient id="SVGID_109_" gradientUnits="userSpaceOnUse" x1="105.8405" y1="828.2858" x2="110.2888" y2="823.8375" gradientTransform="matrix(20 0 0 -12 -1313 9974)">
		<stop  offset="0" style="stop-color:#105168"/>
		<stop  offset="1" style="stop-color:#115169"/>
	</linearGradient>
	<polygon class="st108" points="897.2,44.6 806.3,82 888.1,85.4 	"/>
	
		<linearGradient id="SVGID_110_" gradientUnits="userSpaceOnUse" x1="101.3489" y1="827.0788" x2="105.3825" y2="823.0452" gradientTransform="matrix(28 0 0 -12 -1959 9974)">
		<stop  offset="0" style="stop-color:#13536C"/>
		<stop  offset="1" style="stop-color:#13516A"/>
	</linearGradient>
	<polygon class="st109" points="1015.4,75.2 897.2,44.6 888.1,85.4 	"/>
	
		<linearGradient id="SVGID_111_" gradientUnits="userSpaceOnUse" x1="102.4597" y1="834.0314" x2="106.7637" y2="829.7275" gradientTransform="matrix(27 0 0 -35 -1874 29130)">
		<stop  offset="0" style="stop-color:#124E67"/>
		<stop  offset="1" style="stop-color:#124A64"/>
	</linearGradient>
	<polygon class="st110" points="1015.4,75.2 1018.1,2.3 955.9,2.3 897.2,44.6 	"/>
	
		<linearGradient id="SVGID_112_" gradientUnits="userSpaceOnUse" x1="116.5158" y1="831.3954" x2="120.3686" y2="827.5425" gradientTransform="matrix(26 0 0 -58 -1695 48369)">
		<stop  offset="0" style="stop-color:#0F4962"/>
		<stop  offset="1" style="stop-color:#11536B"/>
	</linearGradient>
	<polygon class="st111" points="1366,232.9 1366,204.2 1333.5,150 	"/>
	
		<linearGradient id="SVGID_113_" gradientUnits="userSpaceOnUse" x1="110.9543" y1="832.4517" x2="114.9464" y2="828.4596" gradientTransform="matrix(31 0 0 -74 -2110 61697)">
		<stop  offset="0" style="stop-color:#0E445C"/>
		<stop  offset="1" style="stop-color:#114760"/>
	</linearGradient>
	<polygon class="st112" points="1366,204.2 1366,137.5 1333.5,150 	"/>
</g>
</svg>
